agent 0 radius 0.5 v 1:
[1.000000,5.000000]
-> [3.000000,5.000000]
wait 1.171573
-> [3.000000,3.000000]
-> [5.000000,1.000000]

agent 1 radius 0.5 v 1:
[1.000000,3.000000]
-> [3.000000,3.000000]
-> [5.000000,1.000000]
-> [7.000000,1.000000]

agent 2 radius 0.5 v 1:
[7.000000,5.000000]
-> [6.000000,5.000000]
-> [3.000000,1.000000]
-> [1.000000,1.000000]
