<?xml version="1.0" encoding="UTF-8" standalone="no"?>
<svg
   width="400"
   height="320"
   viewBox="0 0 400 320"
   version="1.1"
   id="svg200"
   sodipodi:docname="empty_solved_n3_anim_x11.svg"
   inkscape:version="1.3.2 (091e20ef0f, 2023-11-25, custom)"
   xmlns:inkscape="http://www.inkscape.org/namespaces/inkscape"
   xmlns:sodipodi="http://sodipodi.sourceforge.net/DTD/sodipodi-0.dtd"
   xmlns:xlink="http://www.w3.org/1999/xlink"
   xmlns="http://www.w3.org/2000/svg"
   xmlns:svg="http://www.w3.org/2000/svg"
   xmlns:rdf="http://www.w3.org/1999/02/22-rdf-syntax-ns#"
   xmlns:cc="http://creativecommons.org/ns#"
   xmlns:dc="http://purl.org/dc/elements/1.1/">
  <defs
     id="defs200" />
  <sodipodi:namedview
     id="namedview200"
     pagecolor="#ffffff"
     bordercolor="#666666"
     borderopacity="1.0"
     inkscape:showpageshadow="2"
     inkscape:pageopacity="0.0"
     inkscape:pagecheckerboard="0"
     inkscape:deskcolor="#d1d1d1"
     inkscape:zoom="1.7575"
     inkscape:cx="200"
     inkscape:cy="160.1707"
     inkscape:window-width="1680"
     inkscape:window-height="1017"
     inkscape:window-x="0"
     inkscape:window-y="16"
     inkscape:window-maximized="1"
     inkscape:current-layer="gnuplot_canvas" />
  <title
     id="title1">Gnuplot</title>
  <desc
     id="desc1">Produced by GNUPLOT 5.4 patchlevel 10 </desc>
  <g
     id="gnuplot_canvas">
    <rect
       x="0"
       y="0"
       width="400"
       height="320"
       fill="none"
       id="rect1" />
    <defs
       id="defs2">
      <circle
         id="gpDot"
         r="0.5"
         stroke-width="0.5"
         stroke="currentColor" />
      <path
         id="gpPt0"
         stroke-width="0.222"
         stroke="currentColor"
         d="M-1,0 h2 M0,-1 v2" />
      <path
         id="gpPt1"
         stroke-width="0.222"
         stroke="currentColor"
         d="M-1,-1 L1,1 M1,-1 L-1,1" />
      <path
         id="gpPt2"
         stroke-width="0.222"
         stroke="currentColor"
         d="M-1,0 L1,0 M0,-1 L0,1 M-1,-1 L1,1 M-1,1 L1,-1" />
      <rect
         id="gpPt3"
         stroke-width="0.222"
         stroke="currentColor"
         x="-1"
         y="-1"
         width="2"
         height="2" />
      <rect
         id="gpPt4"
         stroke-width="0.222"
         stroke="currentColor"
         fill="currentColor"
         x="-1"
         y="-1"
         width="2"
         height="2" />
      <circle
         id="gpPt5"
         stroke-width="0.222"
         stroke="currentColor"
         cx="0"
         cy="0"
         r="1" />
      <use
         xlink:href="#gpPt5"
         id="gpPt6"
         fill="currentColor"
         stroke="none" />
      <path
         id="gpPt7"
         stroke-width="0.222"
         stroke="currentColor"
         d="M0,-1.33 L-1.33,0.67 L1.33,0.67 z" />
      <use
         xlink:href="#gpPt7"
         id="gpPt8"
         fill="currentColor"
         stroke="none" />
      <use
         xlink:href="#gpPt7"
         id="gpPt9"
         stroke="currentColor"
         transform="rotate(180)" />
      <use
         xlink:href="#gpPt9"
         id="gpPt10"
         fill="currentColor"
         stroke="none" />
      <use
         xlink:href="#gpPt3"
         id="gpPt11"
         stroke="currentColor"
         transform="rotate(45)" />
      <use
         xlink:href="#gpPt11"
         id="gpPt12"
         fill="currentColor"
         stroke="none" />
      <path
         id="gpPt13"
         stroke-width="0.222"
         stroke="currentColor"
         d="M0,1.330 L1.265,0.411 L0.782,-1.067 L-0.782,-1.076 L-1.265,0.411 z" />
      <use
         xlink:href="#gpPt13"
         id="gpPt14"
         fill="currentColor"
         stroke="none" />
      <filter
         id="textbox"
         filterUnits="objectBoundingBox"
         x="0"
         y="0"
         height="1"
         width="1">
        <feFlood
           flood-color="white"
           flood-opacity="1"
           result="bgnd"
           id="feFlood1" />
        <feComposite
           in="SourceGraphic"
           in2="bgnd"
           operator="atop"
           id="feComposite1" />
      </filter>
      <filter
         id="greybox"
         filterUnits="objectBoundingBox"
         x="0"
         y="0"
         height="1"
         width="1">
        <feFlood
           flood-color="lightgrey"
           flood-opacity="1"
           result="grey"
           id="feFlood2" />
        <feComposite
           in="SourceGraphic"
           in2="grey"
           operator="atop"
           id="feComposite2" />
      </filter>
    </defs>
    <g
       fill="none"
       color="white"
       stroke="currentColor"
       stroke-width="1.00"
       stroke-linecap="butt"
       stroke-linejoin="miter"
       id="g2" />
    <g
       fill="none"
       color="black"
       stroke="currentColor"
       stroke-width="1.00"
       stroke-linecap="butt"
       stroke-linejoin="miter"
       id="g4">
      <path
         stroke="black"
         d="M80.92,262.40 L85.42,262.40 M316.09,262.40 L311.59,262.40  "
         id="path2" />
      <g
         transform="translate(72.53,266.30)"
         stroke="none"
         fill="black"
         font-family="Arial"
         font-size="12.00"
         text-anchor="end"
         id="g3">
        <text
           id="text2"><tspan
             font-family="Arial"
             id="tspan2"> 500</tspan></text>
      </g>
    </g>
    <g
       fill="none"
       color="black"
       stroke="currentColor"
       stroke-width="1.00"
       stroke-linecap="butt"
       stroke-linejoin="miter"
       id="g6">
      <path
         stroke="black"
         d="M80.92,239.25 L85.42,239.25 M316.09,239.25 L311.59,239.25  "
         id="path4" />
      <g
         transform="translate(72.53,243.15)"
         stroke="none"
         fill="black"
         font-family="Arial"
         font-size="12.00"
         text-anchor="end"
         id="g5">
        <text
           id="text4"><tspan
             font-family="Arial"
             id="tspan4"> 600</tspan></text>
      </g>
    </g>
    <g
       fill="none"
       color="black"
       stroke="currentColor"
       stroke-width="1.00"
       stroke-linecap="butt"
       stroke-linejoin="miter"
       id="g8">
      <path
         stroke="black"
         d="M80.92,216.09 L85.42,216.09 M316.09,216.09 L311.59,216.09  "
         id="path6" />
      <g
         transform="translate(72.53,219.99)"
         stroke="none"
         fill="black"
         font-family="Arial"
         font-size="12.00"
         text-anchor="end"
         id="g7">
        <text
           id="text6"><tspan
             font-family="Arial"
             id="tspan6"> 700</tspan></text>
      </g>
    </g>
    <g
       fill="none"
       color="black"
       stroke="currentColor"
       stroke-width="1.00"
       stroke-linecap="butt"
       stroke-linejoin="miter"
       id="g10">
      <path
         stroke="black"
         d="M80.92,192.94 L85.42,192.94 M316.09,192.94 L311.59,192.94  "
         id="path8" />
      <g
         transform="translate(72.53,196.84)"
         stroke="none"
         fill="black"
         font-family="Arial"
         font-size="12.00"
         text-anchor="end"
         id="g9">
        <text
           id="text8"><tspan
             font-family="Arial"
             id="tspan8"> 800</tspan></text>
      </g>
    </g>
    <g
       fill="none"
       color="black"
       stroke="currentColor"
       stroke-width="1.00"
       stroke-linecap="butt"
       stroke-linejoin="miter"
       id="g12">
      <path
         stroke="black"
         d="M80.92,169.78 L85.42,169.78 M316.09,169.78 L311.59,169.78  "
         id="path10" />
      <g
         transform="translate(72.53,173.68)"
         stroke="none"
         fill="black"
         font-family="Arial"
         font-size="12.00"
         text-anchor="end"
         id="g11">
        <text
           id="text10"><tspan
             font-family="Arial"
             id="tspan10"> 900</tspan></text>
      </g>
    </g>
    <g
       fill="none"
       color="black"
       stroke="currentColor"
       stroke-width="1.00"
       stroke-linecap="butt"
       stroke-linejoin="miter"
       id="g14">
      <path
         stroke="black"
         d="M80.92,146.63 L85.42,146.63 M316.09,146.63 L311.59,146.63  "
         id="path12" />
      <g
         transform="translate(72.53,150.53)"
         stroke="none"
         fill="black"
         font-family="Arial"
         font-size="12.00"
         text-anchor="end"
         id="g13">
        <text
           id="text12"><tspan
             font-family="Arial"
             id="tspan12"> 1000</tspan></text>
      </g>
    </g>
    <g
       fill="none"
       color="black"
       stroke="currentColor"
       stroke-width="1.00"
       stroke-linecap="butt"
       stroke-linejoin="miter"
       id="g16">
      <path
         stroke="black"
         d="M80.92,123.47 L85.42,123.47 M316.09,123.47 L311.59,123.47  "
         id="path14" />
      <g
         transform="translate(72.53,127.37)"
         stroke="none"
         fill="black"
         font-family="Arial"
         font-size="12.00"
         text-anchor="end"
         id="g15">
        <text
           id="text14"><tspan
             font-family="Arial"
             id="tspan14"> 1100</tspan></text>
      </g>
    </g>
    <g
       fill="none"
       color="black"
       stroke="currentColor"
       stroke-width="1.00"
       stroke-linecap="butt"
       stroke-linejoin="miter"
       id="g18">
      <path
         stroke="black"
         d="M80.92,100.32 L85.42,100.32 M316.09,100.32 L311.59,100.32  "
         id="path16" />
      <g
         transform="translate(72.53,104.22)"
         stroke="none"
         fill="black"
         font-family="Arial"
         font-size="12.00"
         text-anchor="end"
         id="g17">
        <text
           id="text16"><tspan
             font-family="Arial"
             id="tspan16"> 1200</tspan></text>
      </g>
    </g>
    <g
       fill="none"
       color="black"
       stroke="currentColor"
       stroke-width="1.00"
       stroke-linecap="butt"
       stroke-linejoin="miter"
       id="g20">
      <path
         stroke="black"
         d="M80.92,77.16 L85.42,77.16 M316.09,77.16 L311.59,77.16  "
         id="path18" />
      <g
         transform="translate(72.53,81.06)"
         stroke="none"
         fill="black"
         font-family="Arial"
         font-size="12.00"
         text-anchor="end"
         id="g19">
        <text
           id="text18"><tspan
             font-family="Arial"
             id="tspan18"> 1300</tspan></text>
      </g>
    </g>
    <g
       fill="none"
       color="black"
       stroke="currentColor"
       stroke-width="1.00"
       stroke-linecap="butt"
       stroke-linejoin="miter"
       id="g22">
      <path
         stroke="black"
         d="M80.92,54.01 L85.42,54.01 M316.09,54.01 L311.59,54.01  "
         id="path20" />
      <g
         transform="translate(72.53,57.91)"
         stroke="none"
         fill="black"
         font-family="Arial"
         font-size="12.00"
         text-anchor="end"
         id="g21">
        <text
           id="text20"><tspan
             font-family="Arial"
             id="tspan20"> 1400</tspan></text>
      </g>
    </g>
    <g
       fill="none"
       color="black"
       stroke="currentColor"
       stroke-width="1.00"
       stroke-linecap="butt"
       stroke-linejoin="miter"
       id="g24">
      <path
         stroke="black"
         d="M103.68,262.40 M103.68,54.01  "
         id="path22" />
      <g
         transform="translate(103.68,284.30)"
         stroke="none"
         fill="black"
         font-family="Arial"
         font-size="12.00"
         text-anchor="middle"
         id="g23">
        <text
           id="text22"><tspan
             font-family="Arial"
             id="tspan22">30</tspan></text>
      </g>
    </g>
    <g
       fill="none"
       color="black"
       stroke="currentColor"
       stroke-width="1.00"
       stroke-linecap="butt"
       stroke-linejoin="miter"
       id="g26">
      <path
         stroke="black"
         d="M141.61,262.40 M141.61,54.01  "
         id="path24" />
      <g
         transform="translate(141.61,284.30)"
         stroke="none"
         fill="black"
         font-family="Arial"
         font-size="12.00"
         text-anchor="middle"
         id="g25">
        <text
           id="text24"><tspan
             font-family="Arial"
             id="tspan24">60</tspan></text>
      </g>
    </g>
    <g
       fill="none"
       color="black"
       stroke="currentColor"
       stroke-width="1.00"
       stroke-linecap="butt"
       stroke-linejoin="miter"
       id="g28">
      <path
         stroke="black"
         d="M179.54,262.40 M179.54,54.01  "
         id="path26" />
      <g
         transform="translate(179.54,284.30)"
         stroke="none"
         fill="black"
         font-family="Arial"
         font-size="12.00"
         text-anchor="middle"
         id="g27">
        <text
           id="text26"><tspan
             font-family="Arial"
             id="tspan26">120</tspan></text>
      </g>
    </g>
    <g
       fill="none"
       color="black"
       stroke="currentColor"
       stroke-width="1.00"
       stroke-linecap="butt"
       stroke-linejoin="miter"
       id="g30">
      <path
         stroke="black"
         d="M217.47,262.40 M217.47,54.01  "
         id="path28" />
      <g
         transform="translate(217.47,284.30)"
         stroke="none"
         fill="black"
         font-family="Arial"
         font-size="12.00"
         text-anchor="middle"
         id="g29">
        <text
           id="text28"><tspan
             font-family="Arial"
             id="tspan28">240</tspan></text>
      </g>
    </g>
    <g
       fill="none"
       color="black"
       stroke="currentColor"
       stroke-width="1.00"
       stroke-linecap="butt"
       stroke-linejoin="miter"
       id="g32">
      <path
         stroke="black"
         d="M255.40,262.40 M255.40,54.01  "
         id="path30" />
      <g
         transform="translate(255.40,284.30)"
         stroke="none"
         fill="black"
         font-family="Arial"
         font-size="12.00"
         text-anchor="middle"
         id="g31">
        <text
           id="text30"><tspan
             font-family="Arial"
             id="tspan30">480</tspan></text>
      </g>
    </g>
    <g
       fill="none"
       color="black"
       stroke="currentColor"
       stroke-width="1.00"
       stroke-linecap="butt"
       stroke-linejoin="miter"
       id="g34">
      <path
         stroke="black"
         d="M293.33,262.40 M293.33,54.01  "
         id="path32" />
      <g
         transform="translate(293.33,284.30)"
         stroke="none"
         fill="black"
         font-family="Arial"
         font-size="12.00"
         text-anchor="middle"
         id="g33">
        <text
           id="text32"><tspan
             font-family="Arial"
             id="tspan32">960</tspan></text>
      </g>
    </g>
    <g
       fill="none"
       color="black"
       stroke="currentColor"
       stroke-width="1.00"
       stroke-linecap="butt"
       stroke-linejoin="miter"
       id="g36">
      <path
         stroke="black"
         d="M103.68,262.40 M103.68,54.01 M141.61,262.40 M141.61,54.01 M179.54,262.40 M179.54,54.01 M217.47,262.40 M217.47,54.01   M255.40,262.40 M255.40,54.01 M293.33,262.40 M293.33,54.01 M316.09,262.40 L311.59,262.40  "
         id="path34" />
      <g
         transform="translate(324.48,266.30)"
         stroke="none"
         fill="black"
         font-family="Arial"
         font-size="12.00"
         text-anchor="start"
         id="g35">
        <text
           id="text34"><tspan
             font-family="Arial"
             id="tspan34"> 500</tspan></text>
      </g>
    </g>
    <g
       fill="none"
       color="black"
       stroke="currentColor"
       stroke-width="1.00"
       stroke-linecap="butt"
       stroke-linejoin="miter"
       id="g38">
      <path
         stroke="black"
         d="M316.09,239.25 L311.59,239.25  "
         id="path36" />
      <g
         transform="translate(324.48,243.15)"
         stroke="none"
         fill="black"
         font-family="Arial"
         font-size="12.00"
         text-anchor="start"
         id="g37">
        <text
           id="text36"><tspan
             font-family="Arial"
             id="tspan36"> 600</tspan></text>
      </g>
    </g>
    <g
       fill="none"
       color="black"
       stroke="currentColor"
       stroke-width="1.00"
       stroke-linecap="butt"
       stroke-linejoin="miter"
       id="g40">
      <path
         stroke="black"
         d="M316.09,216.09 L311.59,216.09  "
         id="path38" />
      <g
         transform="translate(324.48,219.99)"
         stroke="none"
         fill="black"
         font-family="Arial"
         font-size="12.00"
         text-anchor="start"
         id="g39">
        <text
           id="text38"><tspan
             font-family="Arial"
             id="tspan38"> 700</tspan></text>
      </g>
    </g>
    <g
       fill="none"
       color="black"
       stroke="currentColor"
       stroke-width="1.00"
       stroke-linecap="butt"
       stroke-linejoin="miter"
       id="g42">
      <path
         stroke="black"
         d="M316.09,192.94 L311.59,192.94  "
         id="path40" />
      <g
         transform="translate(324.48,196.84)"
         stroke="none"
         fill="black"
         font-family="Arial"
         font-size="12.00"
         text-anchor="start"
         id="g41">
        <text
           id="text40"><tspan
             font-family="Arial"
             id="tspan40"> 800</tspan></text>
      </g>
    </g>
    <g
       fill="none"
       color="black"
       stroke="currentColor"
       stroke-width="1.00"
       stroke-linecap="butt"
       stroke-linejoin="miter"
       id="g44">
      <path
         stroke="black"
         d="M316.09,169.78 L311.59,169.78  "
         id="path42" />
      <g
         transform="translate(324.48,173.68)"
         stroke="none"
         fill="black"
         font-family="Arial"
         font-size="12.00"
         text-anchor="start"
         id="g43">
        <text
           id="text42"><tspan
             font-family="Arial"
             id="tspan42"> 900</tspan></text>
      </g>
    </g>
    <g
       fill="none"
       color="black"
       stroke="currentColor"
       stroke-width="1.00"
       stroke-linecap="butt"
       stroke-linejoin="miter"
       id="g46">
      <path
         stroke="black"
         d="M316.09,146.63 L311.59,146.63  "
         id="path44" />
      <g
         transform="translate(324.48,150.53)"
         stroke="none"
         fill="black"
         font-family="Arial"
         font-size="12.00"
         text-anchor="start"
         id="g45">
        <text
           id="text44"><tspan
             font-family="Arial"
             id="tspan44"> 1000</tspan></text>
      </g>
    </g>
    <g
       fill="none"
       color="black"
       stroke="currentColor"
       stroke-width="1.00"
       stroke-linecap="butt"
       stroke-linejoin="miter"
       id="g48">
      <path
         stroke="black"
         d="M316.09,123.47 L311.59,123.47  "
         id="path46" />
      <g
         transform="translate(324.48,127.37)"
         stroke="none"
         fill="black"
         font-family="Arial"
         font-size="12.00"
         text-anchor="start"
         id="g47">
        <text
           id="text46"><tspan
             font-family="Arial"
             id="tspan46"> 1100</tspan></text>
      </g>
    </g>
    <g
       fill="none"
       color="black"
       stroke="currentColor"
       stroke-width="1.00"
       stroke-linecap="butt"
       stroke-linejoin="miter"
       id="g50">
      <path
         stroke="black"
         d="M316.09,100.32 L311.59,100.32  "
         id="path48" />
      <g
         transform="translate(324.48,104.22)"
         stroke="none"
         fill="black"
         font-family="Arial"
         font-size="12.00"
         text-anchor="start"
         id="g49">
        <text
           id="text48"><tspan
             font-family="Arial"
             id="tspan48"> 1200</tspan></text>
      </g>
    </g>
    <g
       fill="none"
       color="black"
       stroke="currentColor"
       stroke-width="1.00"
       stroke-linecap="butt"
       stroke-linejoin="miter"
       id="g52">
      <path
         stroke="black"
         d="M316.09,77.16 L311.59,77.16  "
         id="path50" />
      <g
         transform="translate(324.48,81.06)"
         stroke="none"
         fill="black"
         font-family="Arial"
         font-size="12.00"
         text-anchor="start"
         id="g51">
        <text
           id="text50"><tspan
             font-family="Arial"
             id="tspan50"> 1300</tspan></text>
      </g>
    </g>
    <g
       fill="none"
       color="black"
       stroke="currentColor"
       stroke-width="1.00"
       stroke-linecap="butt"
       stroke-linejoin="miter"
       id="g54">
      <path
         stroke="black"
         d="M316.09,54.01 L311.59,54.01  "
         id="path52" />
      <g
         transform="translate(324.48,57.91)"
         stroke="none"
         fill="black"
         font-family="Arial"
         font-size="12.00"
         text-anchor="start"
         id="g53">
        <text
           id="text52"><tspan
             font-family="Arial"
             id="tspan52"> 1400</tspan></text>
      </g>
    </g>
    <g
       fill="none"
       color="black"
       stroke="currentColor"
       stroke-width="1.00"
       stroke-linecap="butt"
       stroke-linejoin="miter"
       id="g55" />
    <g
       fill="none"
       color="black"
       stroke="currentColor"
       stroke-width="1.00"
       stroke-linecap="butt"
       stroke-linejoin="miter"
       id="g56">
      <path
         stroke="black"
         d="M80.92,54.01 L80.92,262.40 L316.09,262.40 L316.09,54.01 L80.92,54.01 Z  "
         id="path55" />
    </g>
    <g
       fill="none"
       color="black"
       stroke="currentColor"
       stroke-width="1.00"
       stroke-linecap="butt"
       stroke-linejoin="miter"
       id="g58">
      <g
         transform="translate(19.18,158.21) rotate(270)"
         stroke="none"
         fill="black"
         font-family="Arial"
         font-size="12.00"
         text-anchor="middle"
         id="g57">
        <text
           id="text56"><tspan
             font-family="Arial"
             id="tspan56">Solved instances</tspan></text>
      </g>
    </g>
    <g
       fill="none"
       color="black"
       stroke="currentColor"
       stroke-width="1.00"
       stroke-linecap="butt"
       stroke-linejoin="miter"
       id="g60">
      <g
         transform="translate(198.50,311.30)"
         stroke="none"
         fill="black"
         font-family="Arial"
         font-size="12.00"
         text-anchor="middle"
         id="g59">
        <text
           id="text58"><tspan
             font-family="Arial"
             id="tspan58">Timeout [s]</tspan></text>
      </g>
    </g>
    <g
       fill="none"
       color="black"
       stroke="currentColor"
       stroke-width="1.00"
       stroke-linecap="butt"
       stroke-linejoin="miter"
       id="g61" />
    <g
       id="gnuplot_plot_1"
       fill="none">
      <title
         id="title61">gnuplot_plot_1</title>
      <g
         fill="none"
         color="white"
         stroke="currentColor"
         stroke-width="0.50"
         stroke-linecap="butt"
         stroke-linejoin="miter"
         id="g62" />
      <g
         fill="none"
         color="black"
         stroke="currentColor"
         stroke-width="0.50"
         stroke-linecap="butt"
         stroke-linejoin="miter"
         id="g63">
        <path
           stroke="black"
           stroke-dasharray="1.2,2.0"
           d="M80.92,262.40 L83.30,262.40 L85.67,262.40 L88.05,262.40 L90.42,262.40 L92.80,262.40 L95.17,262.40 L97.55,262.40   L99.92,262.40 L102.30,262.40 L104.67,262.40 L107.05,262.40 L109.43,262.40 L111.80,262.40 L114.18,262.40 L116.55,262.40   L118.93,262.40 L121.30,262.40 L123.68,262.40 L126.05,262.40 L128.43,262.40 L130.80,262.40 L133.18,262.40 L135.56,262.40   L137.93,262.40 L140.31,262.40 L142.68,262.40 L145.06,262.40 L147.43,262.40 L149.81,262.40 L152.18,262.40 L154.56,262.40   L156.93,262.40 L159.31,262.40 L161.69,262.40 L164.06,262.40 L166.44,262.40 L168.81,262.40 L171.19,262.40 L173.56,262.40   L175.94,262.40 L178.31,262.40 L180.69,262.40 L183.06,262.40 L185.44,262.40 L187.82,262.40 L190.19,262.40 L192.57,262.40   L194.94,262.40 L197.32,262.40 L199.69,262.40 L202.07,262.40 L204.44,262.40 L206.82,262.40 L209.19,262.40 L211.57,262.40   L213.95,262.40 L216.32,262.40 L218.70,262.40 L221.07,262.40 L223.45,262.40 L225.82,262.40 L228.20,262.40 L230.57,262.40   L232.95,262.40 L235.32,262.40 L237.70,262.40 L240.08,262.40 L242.45,262.40 L244.83,262.40 L247.20,262.40 L249.58,262.40   L251.95,262.40 L254.33,262.40 L256.70,262.40 L259.08,262.40 L261.45,262.40 L263.83,262.40 L266.21,262.40 L268.58,262.40   L270.96,262.40 L273.33,262.40 L275.71,262.40 L278.08,262.40 L280.46,262.40 L282.83,262.40 L285.21,262.40 L287.58,262.40   L289.96,262.40 L292.34,262.40 L294.71,262.40 L297.09,262.40 L299.46,262.40 L301.84,262.40 L304.21,262.40 L306.59,262.40   L308.96,262.40 L311.34,262.40 L313.71,262.40 L316.09,262.40  "
           id="path62" />
      </g>
    </g>
    <g
       id="gnuplot_plot_2"
       fill="none">
      <title
         id="title63">gnuplot_plot_2</title>
      <g
         fill="none"
         color="black"
         stroke="currentColor"
         stroke-width="0.50"
         stroke-linecap="butt"
         stroke-linejoin="miter"
         id="g64">
        <path
           stroke="black"
           stroke-dasharray="1.2,2.0"
           d="M80.92,239.25 L83.30,239.25 L85.67,239.25 L88.05,239.25 L90.42,239.25 L92.80,239.25 L95.17,239.25 L97.55,239.25   L99.92,239.25 L102.30,239.25 L104.67,239.25 L107.05,239.25 L109.43,239.25 L111.80,239.25 L114.18,239.25 L116.55,239.25   L118.93,239.25 L121.30,239.25 L123.68,239.25 L126.05,239.25 L128.43,239.25 L130.80,239.25 L133.18,239.25 L135.56,239.25   L137.93,239.25 L140.31,239.25 L142.68,239.25 L145.06,239.25 L147.43,239.25 L149.81,239.25 L152.18,239.25 L154.56,239.25   L156.93,239.25 L159.31,239.25 L161.69,239.25 L164.06,239.25 L166.44,239.25 L168.81,239.25 L171.19,239.25 L173.56,239.25   L175.94,239.25 L178.31,239.25 L180.69,239.25 L183.06,239.25 L185.44,239.25 L187.82,239.25 L190.19,239.25 L192.57,239.25   L194.94,239.25 L197.32,239.25 L199.69,239.25 L202.07,239.25 L204.44,239.25 L206.82,239.25 L209.19,239.25 L211.57,239.25   L213.95,239.25 L216.32,239.25 L218.70,239.25 L221.07,239.25 L223.45,239.25 L225.82,239.25 L228.20,239.25 L230.57,239.25   L232.95,239.25 L235.32,239.25 L237.70,239.25 L240.08,239.25 L242.45,239.25 L244.83,239.25 L247.20,239.25 L249.58,239.25   L251.95,239.25 L254.33,239.25 L256.70,239.25 L259.08,239.25 L261.45,239.25 L263.83,239.25 L266.21,239.25 L268.58,239.25   L270.96,239.25 L273.33,239.25 L275.71,239.25 L278.08,239.25 L280.46,239.25 L282.83,239.25 L285.21,239.25 L287.58,239.25   L289.96,239.25 L292.34,239.25 L294.71,239.25 L297.09,239.25 L299.46,239.25 L301.84,239.25 L304.21,239.25 L306.59,239.25   L308.96,239.25 L311.34,239.25 L313.71,239.25 L316.09,239.25  "
           id="path63" />
      </g>
    </g>
    <g
       id="gnuplot_plot_3"
       fill="none">
      <title
         id="title64">gnuplot_plot_3</title>
      <g
         fill="none"
         color="black"
         stroke="currentColor"
         stroke-width="0.50"
         stroke-linecap="butt"
         stroke-linejoin="miter"
         id="g65">
        <path
           stroke="black"
           stroke-dasharray="1.2,2.0"
           d="M80.92,216.09 L83.30,216.09 L85.67,216.09 L88.05,216.09 L90.42,216.09 L92.80,216.09 L95.17,216.09 L97.55,216.09   L99.92,216.09 L102.30,216.09 L104.67,216.09 L107.05,216.09 L109.43,216.09 L111.80,216.09 L114.18,216.09 L116.55,216.09   L118.93,216.09 L121.30,216.09 L123.68,216.09 L126.05,216.09 L128.43,216.09 L130.80,216.09 L133.18,216.09 L135.56,216.09   L137.93,216.09 L140.31,216.09 L142.68,216.09 L145.06,216.09 L147.43,216.09 L149.81,216.09 L152.18,216.09 L154.56,216.09   L156.93,216.09 L159.31,216.09 L161.69,216.09 L164.06,216.09 L166.44,216.09 L168.81,216.09 L171.19,216.09 L173.56,216.09   L175.94,216.09 L178.31,216.09 L180.69,216.09 L183.06,216.09 L185.44,216.09 L187.82,216.09 L190.19,216.09 L192.57,216.09   L194.94,216.09 L197.32,216.09 L199.69,216.09 L202.07,216.09 L204.44,216.09 L206.82,216.09 L209.19,216.09 L211.57,216.09   L213.95,216.09 L216.32,216.09 L218.70,216.09 L221.07,216.09 L223.45,216.09 L225.82,216.09 L228.20,216.09 L230.57,216.09   L232.95,216.09 L235.32,216.09 L237.70,216.09 L240.08,216.09 L242.45,216.09 L244.83,216.09 L247.20,216.09 L249.58,216.09   L251.95,216.09 L254.33,216.09 L256.70,216.09 L259.08,216.09 L261.45,216.09 L263.83,216.09 L266.21,216.09 L268.58,216.09   L270.96,216.09 L273.33,216.09 L275.71,216.09 L278.08,216.09 L280.46,216.09 L282.83,216.09 L285.21,216.09 L287.58,216.09   L289.96,216.09 L292.34,216.09 L294.71,216.09 L297.09,216.09 L299.46,216.09 L301.84,216.09 L304.21,216.09 L306.59,216.09   L308.96,216.09 L311.34,216.09 L313.71,216.09 L316.09,216.09  "
           id="path64" />
      </g>
    </g>
    <g
       id="gnuplot_plot_4"
       fill="none">
      <title
         id="title65">gnuplot_plot_4</title>
      <g
         fill="none"
         color="black"
         stroke="currentColor"
         stroke-width="0.50"
         stroke-linecap="butt"
         stroke-linejoin="miter"
         id="g66">
        <path
           stroke="black"
           stroke-dasharray="1.2,2.0"
           d="M80.92,192.94 L83.30,192.94 L85.67,192.94 L88.05,192.94 L90.42,192.94 L92.80,192.94 L95.17,192.94 L97.55,192.94   L99.92,192.94 L102.30,192.94 L104.67,192.94 L107.05,192.94 L109.43,192.94 L111.80,192.94 L114.18,192.94 L116.55,192.94   L118.93,192.94 L121.30,192.94 L123.68,192.94 L126.05,192.94 L128.43,192.94 L130.80,192.94 L133.18,192.94 L135.56,192.94   L137.93,192.94 L140.31,192.94 L142.68,192.94 L145.06,192.94 L147.43,192.94 L149.81,192.94 L152.18,192.94 L154.56,192.94   L156.93,192.94 L159.31,192.94 L161.69,192.94 L164.06,192.94 L166.44,192.94 L168.81,192.94 L171.19,192.94 L173.56,192.94   L175.94,192.94 L178.31,192.94 L180.69,192.94 L183.06,192.94 L185.44,192.94 L187.82,192.94 L190.19,192.94 L192.57,192.94   L194.94,192.94 L197.32,192.94 L199.69,192.94 L202.07,192.94 L204.44,192.94 L206.82,192.94 L209.19,192.94 L211.57,192.94   L213.95,192.94 L216.32,192.94 L218.70,192.94 L221.07,192.94 L223.45,192.94 L225.82,192.94 L228.20,192.94 L230.57,192.94   L232.95,192.94 L235.32,192.94 L237.70,192.94 L240.08,192.94 L242.45,192.94 L244.83,192.94 L247.20,192.94 L249.58,192.94   L251.95,192.94 L254.33,192.94 L256.70,192.94 L259.08,192.94 L261.45,192.94 L263.83,192.94 L266.21,192.94 L268.58,192.94   L270.96,192.94 L273.33,192.94 L275.71,192.94 L278.08,192.94 L280.46,192.94 L282.83,192.94 L285.21,192.94 L287.58,192.94   L289.96,192.94 L292.34,192.94 L294.71,192.94 L297.09,192.94 L299.46,192.94 L301.84,192.94 L304.21,192.94 L306.59,192.94   L308.96,192.94 L311.34,192.94 L313.71,192.94 L316.09,192.94  "
           id="path65" />
      </g>
    </g>
    <g
       id="gnuplot_plot_5"
       fill="none">
      <title
         id="title66">gnuplot_plot_5</title>
      <g
         fill="none"
         color="black"
         stroke="currentColor"
         stroke-width="0.50"
         stroke-linecap="butt"
         stroke-linejoin="miter"
         id="g67">
        <path
           stroke="black"
           stroke-dasharray="1.2,2.0"
           d="M80.92,169.78 L83.30,169.78 L85.67,169.78 L88.05,169.78 L90.42,169.78 L92.80,169.78 L95.17,169.78 L97.55,169.78   L99.92,169.78 L102.30,169.78 L104.67,169.78 L107.05,169.78 L109.43,169.78 L111.80,169.78 L114.18,169.78 L116.55,169.78   L118.93,169.78 L121.30,169.78 L123.68,169.78 L126.05,169.78 L128.43,169.78 L130.80,169.78 L133.18,169.78 L135.56,169.78   L137.93,169.78 L140.31,169.78 L142.68,169.78 L145.06,169.78 L147.43,169.78 L149.81,169.78 L152.18,169.78 L154.56,169.78   L156.93,169.78 L159.31,169.78 L161.69,169.78 L164.06,169.78 L166.44,169.78 L168.81,169.78 L171.19,169.78 L173.56,169.78   L175.94,169.78 L178.31,169.78 L180.69,169.78 L183.06,169.78 L185.44,169.78 L187.82,169.78 L190.19,169.78 L192.57,169.78   L194.94,169.78 L197.32,169.78 L199.69,169.78 L202.07,169.78 L204.44,169.78 L206.82,169.78 L209.19,169.78 L211.57,169.78   L213.95,169.78 L216.32,169.78 L218.70,169.78 L221.07,169.78 L223.45,169.78 L225.82,169.78 L228.20,169.78 L230.57,169.78   L232.95,169.78 L235.32,169.78 L237.70,169.78 L240.08,169.78 L242.45,169.78 L244.83,169.78 L247.20,169.78 L249.58,169.78   L251.95,169.78 L254.33,169.78 L256.70,169.78 L259.08,169.78 L261.45,169.78 L263.83,169.78 L266.21,169.78 L268.58,169.78   L270.96,169.78 L273.33,169.78 L275.71,169.78 L278.08,169.78 L280.46,169.78 L282.83,169.78 L285.21,169.78 L287.58,169.78   L289.96,169.78 L292.34,169.78 L294.71,169.78 L297.09,169.78 L299.46,169.78 L301.84,169.78 L304.21,169.78 L306.59,169.78   L308.96,169.78 L311.34,169.78 L313.71,169.78 L316.09,169.78  "
           id="path66" />
      </g>
    </g>
    <g
       id="gnuplot_plot_6"
       fill="none">
      <title
         id="title67">gnuplot_plot_6</title>
      <g
         fill="none"
         color="black"
         stroke="currentColor"
         stroke-width="0.50"
         stroke-linecap="butt"
         stroke-linejoin="miter"
         id="g68">
        <path
           stroke="black"
           stroke-dasharray="1.2,2.0"
           d="M80.92,146.63 L83.30,146.63 L85.67,146.63 L88.05,146.63 L90.42,146.63 L92.80,146.63 L95.17,146.63 L97.55,146.63   L99.92,146.63 L102.30,146.63 L104.67,146.63 L107.05,146.63 L109.43,146.63 L111.80,146.63 L114.18,146.63 L116.55,146.63   L118.93,146.63 L121.30,146.63 L123.68,146.63 L126.05,146.63 L128.43,146.63 L130.80,146.63 L133.18,146.63 L135.56,146.63   L137.93,146.63 L140.31,146.63 L142.68,146.63 L145.06,146.63 L147.43,146.63 L149.81,146.63 L152.18,146.63 L154.56,146.63   L156.93,146.63 L159.31,146.63 L161.69,146.63 L164.06,146.63 L166.44,146.63 L168.81,146.63 L171.19,146.63 L173.56,146.63   L175.94,146.63 L178.31,146.63 L180.69,146.63 L183.06,146.63 L185.44,146.63 L187.82,146.63 L190.19,146.63 L192.57,146.63   L194.94,146.63 L197.32,146.63 L199.69,146.63 L202.07,146.63 L204.44,146.63 L206.82,146.63 L209.19,146.63 L211.57,146.63   L213.95,146.63 L216.32,146.63 L218.70,146.63 L221.07,146.63 L223.45,146.63 L225.82,146.63 L228.20,146.63 L230.57,146.63   L232.95,146.63 L235.32,146.63 L237.70,146.63 L240.08,146.63 L242.45,146.63 L244.83,146.63 L247.20,146.63 L249.58,146.63   L251.95,146.63 L254.33,146.63 L256.70,146.63 L259.08,146.63 L261.45,146.63 L263.83,146.63 L266.21,146.63 L268.58,146.63   L270.96,146.63 L273.33,146.63 L275.71,146.63 L278.08,146.63 L280.46,146.63 L282.83,146.63 L285.21,146.63 L287.58,146.63   L289.96,146.63 L292.34,146.63 L294.71,146.63 L297.09,146.63 L299.46,146.63 L301.84,146.63 L304.21,146.63 L306.59,146.63   L308.96,146.63 L311.34,146.63 L313.71,146.63 L316.09,146.63  "
           id="path67" />
      </g>
    </g>
    <g
       id="gnuplot_plot_7"
       fill="none">
      <title
         id="title68">gnuplot_plot_7</title>
      <g
         fill="none"
         color="black"
         stroke="currentColor"
         stroke-width="0.50"
         stroke-linecap="butt"
         stroke-linejoin="miter"
         id="g69">
        <path
           stroke="black"
           stroke-dasharray="1.2,2.0"
           d="M80.92,123.47 L83.30,123.47 L85.67,123.47 L88.05,123.47 L90.42,123.47 L92.80,123.47 L95.17,123.47 L97.55,123.47   L99.92,123.47 L102.30,123.47 L104.67,123.47 L107.05,123.47 L109.43,123.47 L111.80,123.47 L114.18,123.47 L116.55,123.47   L118.93,123.47 L121.30,123.47 L123.68,123.47 L126.05,123.47 L128.43,123.47 L130.80,123.47 L133.18,123.47 L135.56,123.47   L137.93,123.47 L140.31,123.47 L142.68,123.47 L145.06,123.47 L147.43,123.47 L149.81,123.47 L152.18,123.47 L154.56,123.47   L156.93,123.47 L159.31,123.47 L161.69,123.47 L164.06,123.47 L166.44,123.47 L168.81,123.47 L171.19,123.47 L173.56,123.47   L175.94,123.47 L178.31,123.47 L180.69,123.47 L183.06,123.47 L185.44,123.47 L187.82,123.47 L190.19,123.47 L192.57,123.47   L194.94,123.47 L197.32,123.47 L199.69,123.47 L202.07,123.47 L204.44,123.47 L206.82,123.47 L209.19,123.47 L211.57,123.47   L213.95,123.47 L216.32,123.47 L218.70,123.47 L221.07,123.47 L223.45,123.47 L225.82,123.47 L228.20,123.47 L230.57,123.47   L232.95,123.47 L235.32,123.47 L237.70,123.47 L240.08,123.47 L242.45,123.47 L244.83,123.47 L247.20,123.47 L249.58,123.47   L251.95,123.47 L254.33,123.47 L256.70,123.47 L259.08,123.47 L261.45,123.47 L263.83,123.47 L266.21,123.47 L268.58,123.47   L270.96,123.47 L273.33,123.47 L275.71,123.47 L278.08,123.47 L280.46,123.47 L282.83,123.47 L285.21,123.47 L287.58,123.47   L289.96,123.47 L292.34,123.47 L294.71,123.47 L297.09,123.47 L299.46,123.47 L301.84,123.47 L304.21,123.47 L306.59,123.47   L308.96,123.47 L311.34,123.47 L313.71,123.47 L316.09,123.47  "
           id="path68" />
      </g>
    </g>
    <g
       id="gnuplot_plot_8"
       fill="none">
      <title
         id="title69">gnuplot_plot_8</title>
      <g
         fill="none"
         color="black"
         stroke="currentColor"
         stroke-width="0.50"
         stroke-linecap="butt"
         stroke-linejoin="miter"
         id="g70">
        <path
           stroke="black"
           stroke-dasharray="1.2,2.0"
           d="M80.92,100.32 L83.30,100.32 L85.67,100.32 L88.05,100.32 L90.42,100.32 L92.80,100.32 L95.17,100.32 L97.55,100.32   L99.92,100.32 L102.30,100.32 L104.67,100.32 L107.05,100.32 L109.43,100.32 L111.80,100.32 L114.18,100.32 L116.55,100.32   L118.93,100.32 L121.30,100.32 L123.68,100.32 L126.05,100.32 L128.43,100.32 L130.80,100.32 L133.18,100.32 L135.56,100.32   L137.93,100.32 L140.31,100.32 L142.68,100.32 L145.06,100.32 L147.43,100.32 L149.81,100.32 L152.18,100.32 L154.56,100.32   L156.93,100.32 L159.31,100.32 L161.69,100.32 L164.06,100.32 L166.44,100.32 L168.81,100.32 L171.19,100.32 L173.56,100.32   L175.94,100.32 L178.31,100.32 L180.69,100.32 L183.06,100.32 L185.44,100.32 L187.82,100.32 L190.19,100.32 L192.57,100.32   L194.94,100.32 L197.32,100.32 L199.69,100.32 L202.07,100.32 L204.44,100.32 L206.82,100.32 L209.19,100.32 L211.57,100.32   L213.95,100.32 L216.32,100.32 L218.70,100.32 L221.07,100.32 L223.45,100.32 L225.82,100.32 L228.20,100.32 L230.57,100.32   L232.95,100.32 L235.32,100.32 L237.70,100.32 L240.08,100.32 L242.45,100.32 L244.83,100.32 L247.20,100.32 L249.58,100.32   L251.95,100.32 L254.33,100.32 L256.70,100.32 L259.08,100.32 L261.45,100.32 L263.83,100.32 L266.21,100.32 L268.58,100.32   L270.96,100.32 L273.33,100.32 L275.71,100.32 L278.08,100.32 L280.46,100.32 L282.83,100.32 L285.21,100.32 L287.58,100.32   L289.96,100.32 L292.34,100.32 L294.71,100.32 L297.09,100.32 L299.46,100.32 L301.84,100.32 L304.21,100.32 L306.59,100.32   L308.96,100.32 L311.34,100.32 L313.71,100.32 L316.09,100.32  "
           id="path69" />
      </g>
    </g>
    <g
       id="gnuplot_plot_9"
       fill="none">
      <title
         id="title70">gnuplot_plot_9</title>
      <g
         fill="none"
         color="black"
         stroke="currentColor"
         stroke-width="0.50"
         stroke-linecap="butt"
         stroke-linejoin="miter"
         id="g71">
        <path
           stroke="black"
           stroke-dasharray="1.2,2.0"
           d="M80.92,77.16 L83.30,77.16 L85.67,77.16 L88.05,77.16 L90.42,77.16 L92.80,77.16 L95.17,77.16 L97.55,77.16   L99.92,77.16 L102.30,77.16 L104.67,77.16 L107.05,77.16 L109.43,77.16 L111.80,77.16 L114.18,77.16 L116.55,77.16   L118.93,77.16 L121.30,77.16 L123.68,77.16 L126.05,77.16 L128.43,77.16 L130.80,77.16 L133.18,77.16 L135.56,77.16   L137.93,77.16 L140.31,77.16 L142.68,77.16 L145.06,77.16 L147.43,77.16 L149.81,77.16 L152.18,77.16 L154.56,77.16   L156.93,77.16 L159.31,77.16 L161.69,77.16 L164.06,77.16 L166.44,77.16 L168.81,77.16 L171.19,77.16 L173.56,77.16   L175.94,77.16 L178.31,77.16 L180.69,77.16 L183.06,77.16 L185.44,77.16 L187.82,77.16 L190.19,77.16 L192.57,77.16   L194.94,77.16 L197.32,77.16 L199.69,77.16 L202.07,77.16 L204.44,77.16 L206.82,77.16 L209.19,77.16 L211.57,77.16   L213.95,77.16 L216.32,77.16 L218.70,77.16 L221.07,77.16 L223.45,77.16 L225.82,77.16 L228.20,77.16 L230.57,77.16   L232.95,77.16 L235.32,77.16 L237.70,77.16 L240.08,77.16 L242.45,77.16 L244.83,77.16 L247.20,77.16 L249.58,77.16   L251.95,77.16 L254.33,77.16 L256.70,77.16 L259.08,77.16 L261.45,77.16 L263.83,77.16 L266.21,77.16 L268.58,77.16   L270.96,77.16 L273.33,77.16 L275.71,77.16 L278.08,77.16 L280.46,77.16 L282.83,77.16 L285.21,77.16 L287.58,77.16   L289.96,77.16 L292.34,77.16 L294.71,77.16 L297.09,77.16 L299.46,77.16 L301.84,77.16 L304.21,77.16 L306.59,77.16   L308.96,77.16 L311.34,77.16 L313.71,77.16 L316.09,77.16  "
           id="path70" />
      </g>
    </g>
    <g
       id="gnuplot_plot_10"
       fill="none">
      <title
         id="title71">gnuplot_plot_10</title>
      <g
         fill="none"
         color="black"
         stroke="currentColor"
         stroke-width="0.50"
         stroke-linecap="butt"
         stroke-linejoin="miter"
         id="g72">
        <path
           stroke="black"
           stroke-dasharray="1.2,2.0"
           d="M80.92,54.01 L83.30,54.01 L85.67,54.01 L88.05,54.01 L90.42,54.01 L92.80,54.01 L95.17,54.01 L97.55,54.01   L99.92,54.01 L102.30,54.01 L104.67,54.01 L107.05,54.01 L109.43,54.01 L111.80,54.01 L114.18,54.01 L116.55,54.01   L118.93,54.01 L121.30,54.01 L123.68,54.01 L126.05,54.01 L128.43,54.01 L130.80,54.01 L133.18,54.01 L135.56,54.01   L137.93,54.01 L140.31,54.01 L142.68,54.01 L145.06,54.01 L147.43,54.01 L149.81,54.01 L152.18,54.01 L154.56,54.01   L156.93,54.01 L159.31,54.01 L161.69,54.01 L164.06,54.01 L166.44,54.01 L168.81,54.01 L171.19,54.01 L173.56,54.01   L175.94,54.01 L178.31,54.01 L180.69,54.01 L183.06,54.01 L185.44,54.01 L187.82,54.01 L190.19,54.01 L192.57,54.01   L194.94,54.01 L197.32,54.01 L199.69,54.01 L202.07,54.01 L204.44,54.01 L206.82,54.01 L209.19,54.01 L211.57,54.01   L213.95,54.01 L216.32,54.01 L218.70,54.01 L221.07,54.01 L223.45,54.01 L225.82,54.01 L228.20,54.01 L230.57,54.01   L232.95,54.01 L235.32,54.01 L237.70,54.01 L240.08,54.01 L242.45,54.01 L244.83,54.01 L247.20,54.01 L249.58,54.01   L251.95,54.01 L254.33,54.01 L256.70,54.01 L259.08,54.01 L261.45,54.01 L263.83,54.01 L266.21,54.01 L268.58,54.01   L270.96,54.01 L273.33,54.01 L275.71,54.01 L278.08,54.01 L280.46,54.01 L282.83,54.01 L285.21,54.01 L287.58,54.01   L289.96,54.01 L292.34,54.01 L294.71,54.01 L297.09,54.01 L299.46,54.01 L301.84,54.01 L304.21,54.01 L306.59,54.01   L308.96,54.01 L311.34,54.01 L313.71,54.01 L316.09,54.01  "
           id="path71" />
      </g>
    </g>
    <g
       id="gnuplot_plot_11">
      <title
         id="title72">SMT-CCBS</title>
      <g
         fill="none"
         color="white"
         stroke="black"
         stroke-width="1.00"
         stroke-linecap="butt"
         stroke-linejoin="miter"
         id="g73" />
      <g
         fill="none"
         color="black"
         stroke="currentColor"
         stroke-width="1.00"
         stroke-linecap="butt"
         stroke-linejoin="miter"
         id="g75">
        <g
           transform="translate(106.70,21.90)"
           stroke="none"
           fill="black"
           font-family="Arial"
           font-size="12.00"
           text-anchor="start"
           id="g74">
          <text
             id="text73"><tspan
               font-family="Arial"
               id="tspan73">SMT-CCBS</tspan></text>
        </g>
      </g>
      <g
         fill="none"
         color="black"
         stroke="currentColor"
         stroke-width="1.00"
         stroke-linecap="butt"
         stroke-linejoin="miter"
         id="g77">
        <g
           stroke="none"
           shape-rendering="crispEdges"
           id="g76">
          <polygon
             fill="rgb( 76, 175,  80)"
             points="89.31,22.50 98.31,22.50 98.31,13.50 89.31,13.50 "
             id="polygon75" />
        </g>
        <path
           stroke="rgb(  0,   0,   0)"
           d="M89.31,22.50 L98.31,22.50 L98.31,13.50 L89.31,13.50 L89.31,22.50 Z  "
           id="path76" />
      </g>
      <g
         fill="none"
         color="black"
         stroke="currentColor"
         stroke-width="1.00"
         stroke-linecap="butt"
         stroke-linejoin="miter"
         id="g79">
        <g
           stroke="none"
           shape-rendering="crispEdges"
           id="g78">
          <polygon
             fill="rgb( 76, 175,  80)"
             points="88.51,262.40 96.10,262.40 96.10,175.33 88.51,175.33 "
             id="polygon77" />
        </g>
        <path
           stroke="rgb(  0,   0,   0)"
           d="M88.51,262.40 L88.51,175.34 L96.09,175.34 L96.09,262.40 L88.51,262.40 Z  "
           id="path78" />
      </g>
      <g
         fill="none"
         color="black"
         stroke="currentColor"
         stroke-width="1.00"
         stroke-linecap="butt"
         stroke-linejoin="miter"
         id="g81">
        <g
           stroke="none"
           shape-rendering="crispEdges"
           id="g80">
          <polygon
             fill="rgb( 76, 175,  80)"
             points="126.44,262.40 134.03,262.40 134.03,165.37 126.44,165.37 "
             id="polygon79" />
        </g>
        <path
           stroke="rgb(  0,   0,   0)"
           d="M126.44,262.40 L126.44,165.38 L134.02,165.38 L134.02,262.40 L126.44,262.40 Z  "
           id="path80" />
      </g>
      <g
         fill="none"
         color="black"
         stroke="currentColor"
         stroke-width="1.00"
         stroke-linecap="butt"
         stroke-linejoin="miter"
         id="g83">
        <g
           stroke="none"
           shape-rendering="crispEdges"
           id="g82">
          <polygon
             fill="rgb( 76, 175,  80)"
             points="164.37,262.40 171.96,262.40 171.96,158.66 164.37,158.66 "
             id="polygon81" />
        </g>
        <path
           stroke="rgb(  0,   0,   0)"
           d="M164.37,262.40 L164.37,158.67 L171.95,158.67 L171.95,262.40 L164.37,262.40 Z  "
           id="path82" />
      </g>
      <g
         fill="none"
         color="black"
         stroke="currentColor"
         stroke-width="1.00"
         stroke-linecap="butt"
         stroke-linejoin="miter"
         id="g85">
        <g
           stroke="none"
           shape-rendering="crispEdges"
           id="g84">
          <polygon
             fill="rgb( 76, 175,  80)"
             points="202.30,262.40 209.89,262.40 209.89,153.10 202.30,153.10 "
             id="polygon83" />
        </g>
        <path
           stroke="rgb(  0,   0,   0)"
           d="M202.30,262.40 L202.30,153.11 L209.88,153.11 L209.88,262.40 L202.30,262.40 Z  "
           id="path84" />
      </g>
      <g
         fill="none"
         color="black"
         stroke="currentColor"
         stroke-width="1.00"
         stroke-linecap="butt"
         stroke-linejoin="miter"
         id="g87">
        <g
           stroke="none"
           shape-rendering="crispEdges"
           id="g86">
          <polygon
             fill="rgb( 76, 175,  80)"
             points="240.23,262.40 247.82,262.40 247.82,148.24 240.23,148.24 "
             id="polygon85" />
        </g>
        <path
           stroke="rgb(  0,   0,   0)"
           d="M240.23,262.40 L240.23,148.25 L247.81,148.25 L247.81,262.40 L240.23,262.40 Z  "
           id="path86" />
      </g>
      <g
         fill="none"
         color="black"
         stroke="currentColor"
         stroke-width="1.00"
         stroke-linecap="butt"
         stroke-linejoin="miter"
         id="g89">
        <g
           stroke="none"
           shape-rendering="crispEdges"
           id="g88">
          <polygon
             fill="rgb( 76, 175,  80)"
             points="278.16,262.40 285.76,262.40 285.76,144.07 278.16,144.07 "
             id="polygon87" />
        </g>
        <path
           stroke="rgb(  0,   0,   0)"
           d="M278.16,262.40 L278.16,144.08 L285.75,144.08 L285.75,262.40 L278.16,262.40 Z  "
           id="path88" />
      </g>
      <g
         fill="none"
         color="black"
         stroke="currentColor"
         stroke-width="1.00"
         stroke-linecap="butt"
         stroke-linejoin="miter"
         id="g90" />
    </g>
    <g
       id="gnuplot_plot_12">
      <title
         id="title90">CCBS</title>
      <g
         fill="none"
         color="black"
         stroke="currentColor"
         stroke-width="1.00"
         stroke-linecap="butt"
         stroke-linejoin="miter"
         id="g92">
        <g
           transform="translate(106.70,39.90)"
           stroke="none"
           fill="black"
           font-family="Arial"
           font-size="12.00"
           text-anchor="start"
           id="g91">
          <text
             id="text90"><tspan
               font-family="Arial"
               id="tspan90">CCBS</tspan></text>
        </g>
      </g>
      <g
         fill="none"
         color="black"
         stroke="currentColor"
         stroke-width="1.00"
         stroke-linecap="butt"
         stroke-linejoin="miter"
         id="g94">
        <g
           stroke="none"
           shape-rendering="crispEdges"
           id="g93">
          <polygon
             fill="rgb(255, 152,   0)"
             points="89.31,40.50 98.31,40.50 98.31,31.50 89.31,31.50 "
             id="polygon92" />
        </g>
        <path
           stroke="rgb(  0,   0,   0)"
           d="M89.31,40.50 L98.31,40.50 L98.31,31.50 L89.31,31.50 L89.31,40.50 Z  "
           id="path93" />
      </g>
      <g
         fill="none"
         color="black"
         stroke="currentColor"
         stroke-width="1.00"
         stroke-linecap="butt"
         stroke-linejoin="miter"
         id="g96">
        <g
           stroke="none"
           shape-rendering="crispEdges"
           id="g95">
          <polygon
             fill="rgb(255, 152,   0)"
             points="96.09,262.40 103.69,262.40 103.69,240.16 96.09,240.16 "
             id="polygon94" />
        </g>
        <path
           stroke="rgb(  0,   0,   0)"
           d="M96.09,262.40 L96.09,240.17 L103.68,240.17 L103.68,262.40 L96.09,262.40 Z  "
           id="path95" />
      </g>
      <g
         fill="none"
         color="black"
         stroke="currentColor"
         stroke-width="1.00"
         stroke-linecap="butt"
         stroke-linejoin="miter"
         id="g98">
        <g
           stroke="none"
           shape-rendering="crispEdges"
           id="g97">
          <polygon
             fill="rgb(255, 152,   0)"
             points="134.02,262.40 141.62,262.40 141.62,239.00 134.02,239.00 "
             id="polygon96" />
        </g>
        <path
           stroke="rgb(  0,   0,   0)"
           d="M134.02,262.40 L134.02,239.01 L141.61,239.01 L141.61,262.40 L134.02,262.40 Z  "
           id="path97" />
      </g>
      <g
         fill="none"
         color="black"
         stroke="currentColor"
         stroke-width="1.00"
         stroke-linecap="butt"
         stroke-linejoin="miter"
         id="g100">
        <g
           stroke="none"
           shape-rendering="crispEdges"
           id="g99">
          <polygon
             fill="rgb(255, 152,   0)"
             points="171.95,262.40 179.55,262.40 179.55,237.61 171.95,237.61 "
             id="polygon98" />
        </g>
        <path
           stroke="rgb(  0,   0,   0)"
           d="M171.95,262.40 L171.95,237.62 L179.54,237.62 L179.54,262.40 L171.95,262.40 Z  "
           id="path99" />
      </g>
      <g
         fill="none"
         color="black"
         stroke="currentColor"
         stroke-width="1.00"
         stroke-linecap="butt"
         stroke-linejoin="miter"
         id="g102">
        <g
           stroke="none"
           shape-rendering="crispEdges"
           id="g101">
          <polygon
             fill="rgb(255, 152,   0)"
             points="209.88,262.40 217.48,262.40 217.48,236.69 209.88,236.69 "
             id="polygon100" />
        </g>
        <path
           stroke="rgb(  0,   0,   0)"
           d="M209.88,262.40 L209.88,236.70 L217.47,236.70 L217.47,262.40 L209.88,262.40 Z  "
           id="path101" />
      </g>
      <g
         fill="none"
         color="black"
         stroke="currentColor"
         stroke-width="1.00"
         stroke-linecap="butt"
         stroke-linejoin="miter"
         id="g104">
        <g
           stroke="none"
           shape-rendering="crispEdges"
           id="g103">
          <polygon
             fill="rgb(255, 152,   0)"
             points="247.81,262.40 255.41,262.40 255.41,236.46 247.81,236.46 "
             id="polygon102" />
        </g>
        <path
           stroke="rgb(  0,   0,   0)"
           d="M247.81,262.40 L247.81,236.47 L255.40,236.47 L255.40,262.40 L247.81,262.40 Z  "
           id="path103" />
      </g>
      <g
         fill="none"
         color="black"
         stroke="currentColor"
         stroke-width="1.00"
         stroke-linecap="butt"
         stroke-linejoin="miter"
         id="g106">
        <g
           stroke="none"
           shape-rendering="crispEdges"
           id="g105">
          <polygon
             fill="rgb(255, 152,   0)"
             points="285.75,262.40 293.34,262.40 293.34,235.99 285.75,235.99 "
             id="polygon104" />
        </g>
        <path
           stroke="rgb(  0,   0,   0)"
           d="M285.75,262.40 L285.75,236.00 L293.33,236.00 L293.33,262.40 L285.75,262.40 Z  "
           id="path105" />
      </g>
      <g
         fill="none"
         color="black"
         stroke="currentColor"
         stroke-width="1.00"
         stroke-linecap="butt"
         stroke-linejoin="miter"
         id="g107" />
    </g>
    <g
       fill="none"
       color="white"
       stroke="rgb(233,  30,  99)"
       stroke-width="2.00"
       stroke-linecap="butt"
       stroke-linejoin="miter"
       id="g196" />
    <g
       fill="none"
       color="black"
       stroke="currentColor"
       stroke-width="2.00"
       stroke-linecap="butt"
       stroke-linejoin="miter"
       id="g197" />
    <g
       fill="none"
       color="black"
       stroke="black"
       stroke-width="1.00"
       stroke-linecap="butt"
       stroke-linejoin="miter"
       id="g198" />
    <g
       fill="none"
       color="black"
       stroke="currentColor"
       stroke-width="1.00"
       stroke-linecap="butt"
       stroke-linejoin="miter"
       id="g199">
      <path
         stroke="black"
         d="M80.92,54.01 L80.92,262.40 L316.09,262.40 L316.09,54.01 L80.92,54.01 Z  "
         id="path198" />
    </g>
    <g
       fill="none"
       color="black"
       stroke="currentColor"
       stroke-width="1.00"
       stroke-linecap="butt"
       stroke-linejoin="miter"
       id="g200" />
  </g>
  <metadata
     id="metadata200">
    <rdf:RDF>
      <cc:Work
         rdf:about="">
        <dc:title>Gnuplot</dc:title>
      </cc:Work>
    </rdf:RDF>
  </metadata>
</svg>
