<?xml version="1.0" encoding="utf-8"  standalone="no"?>
<svg 
 width="400" height="320"
 viewBox="0 0 400 320"
 xmlns="http://www.w3.org/2000/svg"
 xmlns:xlink="http://www.w3.org/1999/xlink"
>

<title>Gnuplot</title>
<desc>Produced by GNUPLOT 5.4 patchlevel 10 </desc>

<g id="gnuplot_canvas">

<rect x="0" y="0" width="400" height="320" fill="none"/>
<defs>

	<circle id='gpDot' r='0.5' stroke-width='0.5' stroke='currentColor'/>
	<path id='gpPt0' stroke-width='0.222' stroke='currentColor' d='M-1,0 h2 M0,-1 v2'/>
	<path id='gpPt1' stroke-width='0.222' stroke='currentColor' d='M-1,-1 L1,1 M1,-1 L-1,1'/>
	<path id='gpPt2' stroke-width='0.222' stroke='currentColor' d='M-1,0 L1,0 M0,-1 L0,1 M-1,-1 L1,1 M-1,1 L1,-1'/>
	<rect id='gpPt3' stroke-width='0.222' stroke='currentColor' x='-1' y='-1' width='2' height='2'/>
	<rect id='gpPt4' stroke-width='0.222' stroke='currentColor' fill='currentColor' x='-1' y='-1' width='2' height='2'/>
	<circle id='gpPt5' stroke-width='0.222' stroke='currentColor' cx='0' cy='0' r='1'/>
	<use xlink:href='#gpPt5' id='gpPt6' fill='currentColor' stroke='none'/>
	<path id='gpPt7' stroke-width='0.222' stroke='currentColor' d='M0,-1.33 L-1.33,0.67 L1.33,0.67 z'/>
	<use xlink:href='#gpPt7' id='gpPt8' fill='currentColor' stroke='none'/>
	<use xlink:href='#gpPt7' id='gpPt9' stroke='currentColor' transform='rotate(180)'/>
	<use xlink:href='#gpPt9' id='gpPt10' fill='currentColor' stroke='none'/>
	<use xlink:href='#gpPt3' id='gpPt11' stroke='currentColor' transform='rotate(45)'/>
	<use xlink:href='#gpPt11' id='gpPt12' fill='currentColor' stroke='none'/>
	<path id='gpPt13' stroke-width='0.222' stroke='currentColor' d='M0,1.330 L1.265,0.411 L0.782,-1.067 L-0.782,-1.076 L-1.265,0.411 z'/>
	<use xlink:href='#gpPt13' id='gpPt14' fill='currentColor' stroke='none'/>
	<filter id='textbox' filterUnits='objectBoundingBox' x='0' y='0' height='1' width='1'>
	  <feFlood flood-color='white' flood-opacity='1' result='bgnd'/>
	  <feComposite in='SourceGraphic' in2='bgnd' operator='atop'/>
	</filter>
	<filter id='greybox' filterUnits='objectBoundingBox' x='0' y='0' height='1' width='1'>
	  <feFlood flood-color='lightgrey' flood-opacity='1' result='grey'/>
	  <feComposite in='SourceGraphic' in2='grey' operator='atop'/>
	</filter>
</defs>
<g fill="none" color="white" stroke="currentColor" stroke-width="1.00" stroke-linecap="butt" stroke-linejoin="miter">
</g>
<g fill="none" color="black" stroke="currentColor" stroke-width="1.00" stroke-linecap="butt" stroke-linejoin="miter">
	<path stroke='black'  d='M80.92,262.40 L85.42,262.40 M316.09,262.40 L311.59,262.40  '/>	<g transform="translate(72.53,266.30)" stroke="none" fill="black" font-family="Arial" font-size="12.00"  text-anchor="end">
		<text><tspan font-family="Arial" > 400</tspan></text>
	</g>
</g>
<g fill="none" color="black" stroke="currentColor" stroke-width="1.00" stroke-linecap="butt" stroke-linejoin="miter">
	<path stroke='black'  d='M80.92,243.46 L85.42,243.46 M316.09,243.46 L311.59,243.46  '/>	<g transform="translate(72.53,247.36)" stroke="none" fill="black" font-family="Arial" font-size="12.00"  text-anchor="end">
		<text><tspan font-family="Arial" > 500</tspan></text>
	</g>
</g>
<g fill="none" color="black" stroke="currentColor" stroke-width="1.00" stroke-linecap="butt" stroke-linejoin="miter">
	<path stroke='black'  d='M80.92,224.51 L85.42,224.51 M316.09,224.51 L311.59,224.51  '/>	<g transform="translate(72.53,228.41)" stroke="none" fill="black" font-family="Arial" font-size="12.00"  text-anchor="end">
		<text><tspan font-family="Arial" > 600</tspan></text>
	</g>
</g>
<g fill="none" color="black" stroke="currentColor" stroke-width="1.00" stroke-linecap="butt" stroke-linejoin="miter">
	<path stroke='black'  d='M80.92,205.57 L85.42,205.57 M316.09,205.57 L311.59,205.57  '/>	<g transform="translate(72.53,209.47)" stroke="none" fill="black" font-family="Arial" font-size="12.00"  text-anchor="end">
		<text><tspan font-family="Arial" > 700</tspan></text>
	</g>
</g>
<g fill="none" color="black" stroke="currentColor" stroke-width="1.00" stroke-linecap="butt" stroke-linejoin="miter">
	<path stroke='black'  d='M80.92,186.62 L85.42,186.62 M316.09,186.62 L311.59,186.62  '/>	<g transform="translate(72.53,190.52)" stroke="none" fill="black" font-family="Arial" font-size="12.00"  text-anchor="end">
		<text><tspan font-family="Arial" > 800</tspan></text>
	</g>
</g>
<g fill="none" color="black" stroke="currentColor" stroke-width="1.00" stroke-linecap="butt" stroke-linejoin="miter">
	<path stroke='black'  d='M80.92,167.68 L85.42,167.68 M316.09,167.68 L311.59,167.68  '/>	<g transform="translate(72.53,171.58)" stroke="none" fill="black" font-family="Arial" font-size="12.00"  text-anchor="end">
		<text><tspan font-family="Arial" > 900</tspan></text>
	</g>
</g>
<g fill="none" color="black" stroke="currentColor" stroke-width="1.00" stroke-linecap="butt" stroke-linejoin="miter">
	<path stroke='black'  d='M80.92,148.73 L85.42,148.73 M316.09,148.73 L311.59,148.73  '/>	<g transform="translate(72.53,152.63)" stroke="none" fill="black" font-family="Arial" font-size="12.00"  text-anchor="end">
		<text><tspan font-family="Arial" > 1000</tspan></text>
	</g>
</g>
<g fill="none" color="black" stroke="currentColor" stroke-width="1.00" stroke-linecap="butt" stroke-linejoin="miter">
	<path stroke='black'  d='M80.92,129.79 L85.42,129.79 M316.09,129.79 L311.59,129.79  '/>	<g transform="translate(72.53,133.69)" stroke="none" fill="black" font-family="Arial" font-size="12.00"  text-anchor="end">
		<text><tspan font-family="Arial" > 1100</tspan></text>
	</g>
</g>
<g fill="none" color="black" stroke="currentColor" stroke-width="1.00" stroke-linecap="butt" stroke-linejoin="miter">
	<path stroke='black'  d='M80.92,110.84 L85.42,110.84 M316.09,110.84 L311.59,110.84  '/>	<g transform="translate(72.53,114.74)" stroke="none" fill="black" font-family="Arial" font-size="12.00"  text-anchor="end">
		<text><tspan font-family="Arial" > 1200</tspan></text>
	</g>
</g>
<g fill="none" color="black" stroke="currentColor" stroke-width="1.00" stroke-linecap="butt" stroke-linejoin="miter">
	<path stroke='black'  d='M80.92,91.90 L85.42,91.90 M316.09,91.90 L311.59,91.90  '/>	<g transform="translate(72.53,95.80)" stroke="none" fill="black" font-family="Arial" font-size="12.00"  text-anchor="end">
		<text><tspan font-family="Arial" > 1300</tspan></text>
	</g>
</g>
<g fill="none" color="black" stroke="currentColor" stroke-width="1.00" stroke-linecap="butt" stroke-linejoin="miter">
	<path stroke='black'  d='M80.92,72.95 L85.42,72.95 M316.09,72.95 L311.59,72.95  '/>	<g transform="translate(72.53,76.85)" stroke="none" fill="black" font-family="Arial" font-size="12.00"  text-anchor="end">
		<text><tspan font-family="Arial" > 1400</tspan></text>
	</g>
</g>
<g fill="none" color="black" stroke="currentColor" stroke-width="1.00" stroke-linecap="butt" stroke-linejoin="miter">
	<path stroke='black'  d='M80.92,54.01 L85.42,54.01 M316.09,54.01 L311.59,54.01  '/>	<g transform="translate(72.53,57.91)" stroke="none" fill="black" font-family="Arial" font-size="12.00"  text-anchor="end">
		<text><tspan font-family="Arial" > 1500</tspan></text>
	</g>
</g>
<g fill="none" color="black" stroke="currentColor" stroke-width="1.00" stroke-linecap="butt" stroke-linejoin="miter">
	<path stroke='black'  d='M103.68,262.40 M103.68,54.01  '/>	<g transform="translate(103.68,284.30)" stroke="none" fill="black" font-family="Arial" font-size="12.00"  text-anchor="middle">
		<text><tspan font-family="Arial" >30</tspan></text>
	</g>
</g>
<g fill="none" color="black" stroke="currentColor" stroke-width="1.00" stroke-linecap="butt" stroke-linejoin="miter">
	<path stroke='black'  d='M141.61,262.40 M141.61,54.01  '/>	<g transform="translate(141.61,284.30)" stroke="none" fill="black" font-family="Arial" font-size="12.00"  text-anchor="middle">
		<text><tspan font-family="Arial" >60</tspan></text>
	</g>
</g>
<g fill="none" color="black" stroke="currentColor" stroke-width="1.00" stroke-linecap="butt" stroke-linejoin="miter">
	<path stroke='black'  d='M179.54,262.40 M179.54,54.01  '/>	<g transform="translate(179.54,284.30)" stroke="none" fill="black" font-family="Arial" font-size="12.00"  text-anchor="middle">
		<text><tspan font-family="Arial" >120</tspan></text>
	</g>
</g>
<g fill="none" color="black" stroke="currentColor" stroke-width="1.00" stroke-linecap="butt" stroke-linejoin="miter">
	<path stroke='black'  d='M217.47,262.40 M217.47,54.01  '/>	<g transform="translate(217.47,284.30)" stroke="none" fill="black" font-family="Arial" font-size="12.00"  text-anchor="middle">
		<text><tspan font-family="Arial" >240</tspan></text>
	</g>
</g>
<g fill="none" color="black" stroke="currentColor" stroke-width="1.00" stroke-linecap="butt" stroke-linejoin="miter">
	<path stroke='black'  d='M255.40,262.40 M255.40,54.01  '/>	<g transform="translate(255.40,284.30)" stroke="none" fill="black" font-family="Arial" font-size="12.00"  text-anchor="middle">
		<text><tspan font-family="Arial" >480</tspan></text>
	</g>
</g>
<g fill="none" color="black" stroke="currentColor" stroke-width="1.00" stroke-linecap="butt" stroke-linejoin="miter">
	<path stroke='black'  d='M293.33,262.40 M293.33,54.01  '/>	<g transform="translate(293.33,284.30)" stroke="none" fill="black" font-family="Arial" font-size="12.00"  text-anchor="middle">
		<text><tspan font-family="Arial" >960</tspan></text>
	</g>
</g>
<g fill="none" color="black" stroke="currentColor" stroke-width="1.00" stroke-linecap="butt" stroke-linejoin="miter">
	<path stroke='black'  d='M103.68,262.40 M103.68,54.01 M141.61,262.40 M141.61,54.01 M179.54,262.40 M179.54,54.01 M217.47,262.40 M217.47,54.01
		M255.40,262.40 M255.40,54.01 M293.33,262.40 M293.33,54.01 M316.09,262.40 L311.59,262.40  '/>	<g transform="translate(324.48,266.30)" stroke="none" fill="black" font-family="Arial" font-size="12.00"  text-anchor="start">
		<text><tspan font-family="Arial" > 400</tspan></text>
	</g>
</g>
<g fill="none" color="black" stroke="currentColor" stroke-width="1.00" stroke-linecap="butt" stroke-linejoin="miter">
	<path stroke='black'  d='M316.09,243.46 L311.59,243.46  '/>	<g transform="translate(324.48,247.36)" stroke="none" fill="black" font-family="Arial" font-size="12.00"  text-anchor="start">
		<text><tspan font-family="Arial" > 500</tspan></text>
	</g>
</g>
<g fill="none" color="black" stroke="currentColor" stroke-width="1.00" stroke-linecap="butt" stroke-linejoin="miter">
	<path stroke='black'  d='M316.09,224.51 L311.59,224.51  '/>	<g transform="translate(324.48,228.41)" stroke="none" fill="black" font-family="Arial" font-size="12.00"  text-anchor="start">
		<text><tspan font-family="Arial" > 600</tspan></text>
	</g>
</g>
<g fill="none" color="black" stroke="currentColor" stroke-width="1.00" stroke-linecap="butt" stroke-linejoin="miter">
	<path stroke='black'  d='M316.09,205.57 L311.59,205.57  '/>	<g transform="translate(324.48,209.47)" stroke="none" fill="black" font-family="Arial" font-size="12.00"  text-anchor="start">
		<text><tspan font-family="Arial" > 700</tspan></text>
	</g>
</g>
<g fill="none" color="black" stroke="currentColor" stroke-width="1.00" stroke-linecap="butt" stroke-linejoin="miter">
	<path stroke='black'  d='M316.09,186.62 L311.59,186.62  '/>	<g transform="translate(324.48,190.52)" stroke="none" fill="black" font-family="Arial" font-size="12.00"  text-anchor="start">
		<text><tspan font-family="Arial" > 800</tspan></text>
	</g>
</g>
<g fill="none" color="black" stroke="currentColor" stroke-width="1.00" stroke-linecap="butt" stroke-linejoin="miter">
	<path stroke='black'  d='M316.09,167.68 L311.59,167.68  '/>	<g transform="translate(324.48,171.58)" stroke="none" fill="black" font-family="Arial" font-size="12.00"  text-anchor="start">
		<text><tspan font-family="Arial" > 900</tspan></text>
	</g>
</g>
<g fill="none" color="black" stroke="currentColor" stroke-width="1.00" stroke-linecap="butt" stroke-linejoin="miter">
	<path stroke='black'  d='M316.09,148.73 L311.59,148.73  '/>	<g transform="translate(324.48,152.63)" stroke="none" fill="black" font-family="Arial" font-size="12.00"  text-anchor="start">
		<text><tspan font-family="Arial" > 1000</tspan></text>
	</g>
</g>
<g fill="none" color="black" stroke="currentColor" stroke-width="1.00" stroke-linecap="butt" stroke-linejoin="miter">
	<path stroke='black'  d='M316.09,129.79 L311.59,129.79  '/>	<g transform="translate(324.48,133.69)" stroke="none" fill="black" font-family="Arial" font-size="12.00"  text-anchor="start">
		<text><tspan font-family="Arial" > 1100</tspan></text>
	</g>
</g>
<g fill="none" color="black" stroke="currentColor" stroke-width="1.00" stroke-linecap="butt" stroke-linejoin="miter">
	<path stroke='black'  d='M316.09,110.84 L311.59,110.84  '/>	<g transform="translate(324.48,114.74)" stroke="none" fill="black" font-family="Arial" font-size="12.00"  text-anchor="start">
		<text><tspan font-family="Arial" > 1200</tspan></text>
	</g>
</g>
<g fill="none" color="black" stroke="currentColor" stroke-width="1.00" stroke-linecap="butt" stroke-linejoin="miter">
	<path stroke='black'  d='M316.09,91.90 L311.59,91.90  '/>	<g transform="translate(324.48,95.80)" stroke="none" fill="black" font-family="Arial" font-size="12.00"  text-anchor="start">
		<text><tspan font-family="Arial" > 1300</tspan></text>
	</g>
</g>
<g fill="none" color="black" stroke="currentColor" stroke-width="1.00" stroke-linecap="butt" stroke-linejoin="miter">
	<path stroke='black'  d='M316.09,72.95 L311.59,72.95  '/>	<g transform="translate(324.48,76.85)" stroke="none" fill="black" font-family="Arial" font-size="12.00"  text-anchor="start">
		<text><tspan font-family="Arial" > 1400</tspan></text>
	</g>
</g>
<g fill="none" color="black" stroke="currentColor" stroke-width="1.00" stroke-linecap="butt" stroke-linejoin="miter">
	<path stroke='black'  d='M316.09,54.01 L311.59,54.01  '/>	<g transform="translate(324.48,57.91)" stroke="none" fill="black" font-family="Arial" font-size="12.00"  text-anchor="start">
		<text><tspan font-family="Arial" > 1500</tspan></text>
	</g>
</g>
<g fill="none" color="black" stroke="currentColor" stroke-width="1.00" stroke-linecap="butt" stroke-linejoin="miter">
</g>
<g fill="none" color="black" stroke="currentColor" stroke-width="1.00" stroke-linecap="butt" stroke-linejoin="miter">
	<path stroke='black'  d='M80.92,54.01 L80.92,262.40 L316.09,262.40 L316.09,54.01 L80.92,54.01 Z  '/></g>
<g fill="none" color="black" stroke="currentColor" stroke-width="1.00" stroke-linecap="butt" stroke-linejoin="miter">
	<g transform="translate(19.18,158.21) rotate(270)" stroke="none" fill="black" font-family="Arial" font-size="12.00"  text-anchor="middle">
		<text><tspan font-family="Arial" >Solved instances</tspan></text>
	</g>
</g>
<g fill="none" color="black" stroke="currentColor" stroke-width="1.00" stroke-linecap="butt" stroke-linejoin="miter">
	<g transform="translate(198.50,311.30)" stroke="none" fill="black" font-family="Arial" font-size="12.00"  text-anchor="middle">
		<text><tspan font-family="Arial" >Timeout [s]</tspan></text>
	</g>
</g>
<g fill="none" color="black" stroke="currentColor" stroke-width="1.00" stroke-linecap="butt" stroke-linejoin="miter">
</g>
	<g id="gnuplot_plot_1"  fill="none"><title>gnuplot_plot_1</title>
<g fill="none" color="white" stroke="currentColor" stroke-width="0.50" stroke-linecap="butt" stroke-linejoin="miter">
</g>
<g fill="none" color="black" stroke="currentColor" stroke-width="0.50" stroke-linecap="butt" stroke-linejoin="miter">
	<path stroke='black' stroke-dasharray='1.2,2.0'  d='M80.92,262.40 L83.30,262.40 L85.67,262.40 L88.05,262.40 L90.42,262.40 L92.80,262.40 L95.17,262.40 L97.55,262.40
		L99.92,262.40 L102.30,262.40 L104.67,262.40 L107.05,262.40 L109.43,262.40 L111.80,262.40 L114.18,262.40 L116.55,262.40
		L118.93,262.40 L121.30,262.40 L123.68,262.40 L126.05,262.40 L128.43,262.40 L130.80,262.40 L133.18,262.40 L135.56,262.40
		L137.93,262.40 L140.31,262.40 L142.68,262.40 L145.06,262.40 L147.43,262.40 L149.81,262.40 L152.18,262.40 L154.56,262.40
		L156.93,262.40 L159.31,262.40 L161.69,262.40 L164.06,262.40 L166.44,262.40 L168.81,262.40 L171.19,262.40 L173.56,262.40
		L175.94,262.40 L178.31,262.40 L180.69,262.40 L183.06,262.40 L185.44,262.40 L187.82,262.40 L190.19,262.40 L192.57,262.40
		L194.94,262.40 L197.32,262.40 L199.69,262.40 L202.07,262.40 L204.44,262.40 L206.82,262.40 L209.19,262.40 L211.57,262.40
		L213.95,262.40 L216.32,262.40 L218.70,262.40 L221.07,262.40 L223.45,262.40 L225.82,262.40 L228.20,262.40 L230.57,262.40
		L232.95,262.40 L235.32,262.40 L237.70,262.40 L240.08,262.40 L242.45,262.40 L244.83,262.40 L247.20,262.40 L249.58,262.40
		L251.95,262.40 L254.33,262.40 L256.70,262.40 L259.08,262.40 L261.45,262.40 L263.83,262.40 L266.21,262.40 L268.58,262.40
		L270.96,262.40 L273.33,262.40 L275.71,262.40 L278.08,262.40 L280.46,262.40 L282.83,262.40 L285.21,262.40 L287.58,262.40
		L289.96,262.40 L292.34,262.40 L294.71,262.40 L297.09,262.40 L299.46,262.40 L301.84,262.40 L304.21,262.40 L306.59,262.40
		L308.96,262.40 L311.34,262.40 L313.71,262.40 L316.09,262.40  '/></g>
	</g>
	<g id="gnuplot_plot_2"  fill="none"><title>gnuplot_plot_2</title>
<g fill="none" color="black" stroke="currentColor" stroke-width="0.50" stroke-linecap="butt" stroke-linejoin="miter">
	<path stroke='black' stroke-dasharray='1.2,2.0'  d='M80.92,243.46 L83.30,243.46 L85.67,243.46 L88.05,243.46 L90.42,243.46 L92.80,243.46 L95.17,243.46 L97.55,243.46
		L99.92,243.46 L102.30,243.46 L104.67,243.46 L107.05,243.46 L109.43,243.46 L111.80,243.46 L114.18,243.46 L116.55,243.46
		L118.93,243.46 L121.30,243.46 L123.68,243.46 L126.05,243.46 L128.43,243.46 L130.80,243.46 L133.18,243.46 L135.56,243.46
		L137.93,243.46 L140.31,243.46 L142.68,243.46 L145.06,243.46 L147.43,243.46 L149.81,243.46 L152.18,243.46 L154.56,243.46
		L156.93,243.46 L159.31,243.46 L161.69,243.46 L164.06,243.46 L166.44,243.46 L168.81,243.46 L171.19,243.46 L173.56,243.46
		L175.94,243.46 L178.31,243.46 L180.69,243.46 L183.06,243.46 L185.44,243.46 L187.82,243.46 L190.19,243.46 L192.57,243.46
		L194.94,243.46 L197.32,243.46 L199.69,243.46 L202.07,243.46 L204.44,243.46 L206.82,243.46 L209.19,243.46 L211.57,243.46
		L213.95,243.46 L216.32,243.46 L218.70,243.46 L221.07,243.46 L223.45,243.46 L225.82,243.46 L228.20,243.46 L230.57,243.46
		L232.95,243.46 L235.32,243.46 L237.70,243.46 L240.08,243.46 L242.45,243.46 L244.83,243.46 L247.20,243.46 L249.58,243.46
		L251.95,243.46 L254.33,243.46 L256.70,243.46 L259.08,243.46 L261.45,243.46 L263.83,243.46 L266.21,243.46 L268.58,243.46
		L270.96,243.46 L273.33,243.46 L275.71,243.46 L278.08,243.46 L280.46,243.46 L282.83,243.46 L285.21,243.46 L287.58,243.46
		L289.96,243.46 L292.34,243.46 L294.71,243.46 L297.09,243.46 L299.46,243.46 L301.84,243.46 L304.21,243.46 L306.59,243.46
		L308.96,243.46 L311.34,243.46 L313.71,243.46 L316.09,243.46  '/></g>
	</g>
	<g id="gnuplot_plot_3"  fill="none"><title>gnuplot_plot_3</title>
<g fill="none" color="black" stroke="currentColor" stroke-width="0.50" stroke-linecap="butt" stroke-linejoin="miter">
	<path stroke='black' stroke-dasharray='1.2,2.0'  d='M80.92,224.51 L83.30,224.51 L85.67,224.51 L88.05,224.51 L90.42,224.51 L92.80,224.51 L95.17,224.51 L97.55,224.51
		L99.92,224.51 L102.30,224.51 L104.67,224.51 L107.05,224.51 L109.43,224.51 L111.80,224.51 L114.18,224.51 L116.55,224.51
		L118.93,224.51 L121.30,224.51 L123.68,224.51 L126.05,224.51 L128.43,224.51 L130.80,224.51 L133.18,224.51 L135.56,224.51
		L137.93,224.51 L140.31,224.51 L142.68,224.51 L145.06,224.51 L147.43,224.51 L149.81,224.51 L152.18,224.51 L154.56,224.51
		L156.93,224.51 L159.31,224.51 L161.69,224.51 L164.06,224.51 L166.44,224.51 L168.81,224.51 L171.19,224.51 L173.56,224.51
		L175.94,224.51 L178.31,224.51 L180.69,224.51 L183.06,224.51 L185.44,224.51 L187.82,224.51 L190.19,224.51 L192.57,224.51
		L194.94,224.51 L197.32,224.51 L199.69,224.51 L202.07,224.51 L204.44,224.51 L206.82,224.51 L209.19,224.51 L211.57,224.51
		L213.95,224.51 L216.32,224.51 L218.70,224.51 L221.07,224.51 L223.45,224.51 L225.82,224.51 L228.20,224.51 L230.57,224.51
		L232.95,224.51 L235.32,224.51 L237.70,224.51 L240.08,224.51 L242.45,224.51 L244.83,224.51 L247.20,224.51 L249.58,224.51
		L251.95,224.51 L254.33,224.51 L256.70,224.51 L259.08,224.51 L261.45,224.51 L263.83,224.51 L266.21,224.51 L268.58,224.51
		L270.96,224.51 L273.33,224.51 L275.71,224.51 L278.08,224.51 L280.46,224.51 L282.83,224.51 L285.21,224.51 L287.58,224.51
		L289.96,224.51 L292.34,224.51 L294.71,224.51 L297.09,224.51 L299.46,224.51 L301.84,224.51 L304.21,224.51 L306.59,224.51
		L308.96,224.51 L311.34,224.51 L313.71,224.51 L316.09,224.51  '/></g>
	</g>
	<g id="gnuplot_plot_4"  fill="none"><title>gnuplot_plot_4</title>
<g fill="none" color="black" stroke="currentColor" stroke-width="0.50" stroke-linecap="butt" stroke-linejoin="miter">
	<path stroke='black' stroke-dasharray='1.2,2.0'  d='M80.92,205.57 L83.30,205.57 L85.67,205.57 L88.05,205.57 L90.42,205.57 L92.80,205.57 L95.17,205.57 L97.55,205.57
		L99.92,205.57 L102.30,205.57 L104.67,205.57 L107.05,205.57 L109.43,205.57 L111.80,205.57 L114.18,205.57 L116.55,205.57
		L118.93,205.57 L121.30,205.57 L123.68,205.57 L126.05,205.57 L128.43,205.57 L130.80,205.57 L133.18,205.57 L135.56,205.57
		L137.93,205.57 L140.31,205.57 L142.68,205.57 L145.06,205.57 L147.43,205.57 L149.81,205.57 L152.18,205.57 L154.56,205.57
		L156.93,205.57 L159.31,205.57 L161.69,205.57 L164.06,205.57 L166.44,205.57 L168.81,205.57 L171.19,205.57 L173.56,205.57
		L175.94,205.57 L178.31,205.57 L180.69,205.57 L183.06,205.57 L185.44,205.57 L187.82,205.57 L190.19,205.57 L192.57,205.57
		L194.94,205.57 L197.32,205.57 L199.69,205.57 L202.07,205.57 L204.44,205.57 L206.82,205.57 L209.19,205.57 L211.57,205.57
		L213.95,205.57 L216.32,205.57 L218.70,205.57 L221.07,205.57 L223.45,205.57 L225.82,205.57 L228.20,205.57 L230.57,205.57
		L232.95,205.57 L235.32,205.57 L237.70,205.57 L240.08,205.57 L242.45,205.57 L244.83,205.57 L247.20,205.57 L249.58,205.57
		L251.95,205.57 L254.33,205.57 L256.70,205.57 L259.08,205.57 L261.45,205.57 L263.83,205.57 L266.21,205.57 L268.58,205.57
		L270.96,205.57 L273.33,205.57 L275.71,205.57 L278.08,205.57 L280.46,205.57 L282.83,205.57 L285.21,205.57 L287.58,205.57
		L289.96,205.57 L292.34,205.57 L294.71,205.57 L297.09,205.57 L299.46,205.57 L301.84,205.57 L304.21,205.57 L306.59,205.57
		L308.96,205.57 L311.34,205.57 L313.71,205.57 L316.09,205.57  '/></g>
	</g>
	<g id="gnuplot_plot_5"  fill="none"><title>gnuplot_plot_5</title>
<g fill="none" color="black" stroke="currentColor" stroke-width="0.50" stroke-linecap="butt" stroke-linejoin="miter">
	<path stroke='black' stroke-dasharray='1.2,2.0'  d='M80.92,186.62 L83.30,186.62 L85.67,186.62 L88.05,186.62 L90.42,186.62 L92.80,186.62 L95.17,186.62 L97.55,186.62
		L99.92,186.62 L102.30,186.62 L104.67,186.62 L107.05,186.62 L109.43,186.62 L111.80,186.62 L114.18,186.62 L116.55,186.62
		L118.93,186.62 L121.30,186.62 L123.68,186.62 L126.05,186.62 L128.43,186.62 L130.80,186.62 L133.18,186.62 L135.56,186.62
		L137.93,186.62 L140.31,186.62 L142.68,186.62 L145.06,186.62 L147.43,186.62 L149.81,186.62 L152.18,186.62 L154.56,186.62
		L156.93,186.62 L159.31,186.62 L161.69,186.62 L164.06,186.62 L166.44,186.62 L168.81,186.62 L171.19,186.62 L173.56,186.62
		L175.94,186.62 L178.31,186.62 L180.69,186.62 L183.06,186.62 L185.44,186.62 L187.82,186.62 L190.19,186.62 L192.57,186.62
		L194.94,186.62 L197.32,186.62 L199.69,186.62 L202.07,186.62 L204.44,186.62 L206.82,186.62 L209.19,186.62 L211.57,186.62
		L213.95,186.62 L216.32,186.62 L218.70,186.62 L221.07,186.62 L223.45,186.62 L225.82,186.62 L228.20,186.62 L230.57,186.62
		L232.95,186.62 L235.32,186.62 L237.70,186.62 L240.08,186.62 L242.45,186.62 L244.83,186.62 L247.20,186.62 L249.58,186.62
		L251.95,186.62 L254.33,186.62 L256.70,186.62 L259.08,186.62 L261.45,186.62 L263.83,186.62 L266.21,186.62 L268.58,186.62
		L270.96,186.62 L273.33,186.62 L275.71,186.62 L278.08,186.62 L280.46,186.62 L282.83,186.62 L285.21,186.62 L287.58,186.62
		L289.96,186.62 L292.34,186.62 L294.71,186.62 L297.09,186.62 L299.46,186.62 L301.84,186.62 L304.21,186.62 L306.59,186.62
		L308.96,186.62 L311.34,186.62 L313.71,186.62 L316.09,186.62  '/></g>
	</g>
	<g id="gnuplot_plot_6"  fill="none"><title>gnuplot_plot_6</title>
<g fill="none" color="black" stroke="currentColor" stroke-width="0.50" stroke-linecap="butt" stroke-linejoin="miter">
	<path stroke='black' stroke-dasharray='1.2,2.0'  d='M80.92,167.68 L83.30,167.68 L85.67,167.68 L88.05,167.68 L90.42,167.68 L92.80,167.68 L95.17,167.68 L97.55,167.68
		L99.92,167.68 L102.30,167.68 L104.67,167.68 L107.05,167.68 L109.43,167.68 L111.80,167.68 L114.18,167.68 L116.55,167.68
		L118.93,167.68 L121.30,167.68 L123.68,167.68 L126.05,167.68 L128.43,167.68 L130.80,167.68 L133.18,167.68 L135.56,167.68
		L137.93,167.68 L140.31,167.68 L142.68,167.68 L145.06,167.68 L147.43,167.68 L149.81,167.68 L152.18,167.68 L154.56,167.68
		L156.93,167.68 L159.31,167.68 L161.69,167.68 L164.06,167.68 L166.44,167.68 L168.81,167.68 L171.19,167.68 L173.56,167.68
		L175.94,167.68 L178.31,167.68 L180.69,167.68 L183.06,167.68 L185.44,167.68 L187.82,167.68 L190.19,167.68 L192.57,167.68
		L194.94,167.68 L197.32,167.68 L199.69,167.68 L202.07,167.68 L204.44,167.68 L206.82,167.68 L209.19,167.68 L211.57,167.68
		L213.95,167.68 L216.32,167.68 L218.70,167.68 L221.07,167.68 L223.45,167.68 L225.82,167.68 L228.20,167.68 L230.57,167.68
		L232.95,167.68 L235.32,167.68 L237.70,167.68 L240.08,167.68 L242.45,167.68 L244.83,167.68 L247.20,167.68 L249.58,167.68
		L251.95,167.68 L254.33,167.68 L256.70,167.68 L259.08,167.68 L261.45,167.68 L263.83,167.68 L266.21,167.68 L268.58,167.68
		L270.96,167.68 L273.33,167.68 L275.71,167.68 L278.08,167.68 L280.46,167.68 L282.83,167.68 L285.21,167.68 L287.58,167.68
		L289.96,167.68 L292.34,167.68 L294.71,167.68 L297.09,167.68 L299.46,167.68 L301.84,167.68 L304.21,167.68 L306.59,167.68
		L308.96,167.68 L311.34,167.68 L313.71,167.68 L316.09,167.68  '/></g>
	</g>
	<g id="gnuplot_plot_7"  fill="none"><title>gnuplot_plot_7</title>
<g fill="none" color="black" stroke="currentColor" stroke-width="0.50" stroke-linecap="butt" stroke-linejoin="miter">
	<path stroke='black' stroke-dasharray='1.2,2.0'  d='M80.92,148.73 L83.30,148.73 L85.67,148.73 L88.05,148.73 L90.42,148.73 L92.80,148.73 L95.17,148.73 L97.55,148.73
		L99.92,148.73 L102.30,148.73 L104.67,148.73 L107.05,148.73 L109.43,148.73 L111.80,148.73 L114.18,148.73 L116.55,148.73
		L118.93,148.73 L121.30,148.73 L123.68,148.73 L126.05,148.73 L128.43,148.73 L130.80,148.73 L133.18,148.73 L135.56,148.73
		L137.93,148.73 L140.31,148.73 L142.68,148.73 L145.06,148.73 L147.43,148.73 L149.81,148.73 L152.18,148.73 L154.56,148.73
		L156.93,148.73 L159.31,148.73 L161.69,148.73 L164.06,148.73 L166.44,148.73 L168.81,148.73 L171.19,148.73 L173.56,148.73
		L175.94,148.73 L178.31,148.73 L180.69,148.73 L183.06,148.73 L185.44,148.73 L187.82,148.73 L190.19,148.73 L192.57,148.73
		L194.94,148.73 L197.32,148.73 L199.69,148.73 L202.07,148.73 L204.44,148.73 L206.82,148.73 L209.19,148.73 L211.57,148.73
		L213.95,148.73 L216.32,148.73 L218.70,148.73 L221.07,148.73 L223.45,148.73 L225.82,148.73 L228.20,148.73 L230.57,148.73
		L232.95,148.73 L235.32,148.73 L237.70,148.73 L240.08,148.73 L242.45,148.73 L244.83,148.73 L247.20,148.73 L249.58,148.73
		L251.95,148.73 L254.33,148.73 L256.70,148.73 L259.08,148.73 L261.45,148.73 L263.83,148.73 L266.21,148.73 L268.58,148.73
		L270.96,148.73 L273.33,148.73 L275.71,148.73 L278.08,148.73 L280.46,148.73 L282.83,148.73 L285.21,148.73 L287.58,148.73
		L289.96,148.73 L292.34,148.73 L294.71,148.73 L297.09,148.73 L299.46,148.73 L301.84,148.73 L304.21,148.73 L306.59,148.73
		L308.96,148.73 L311.34,148.73 L313.71,148.73 L316.09,148.73  '/></g>
	</g>
	<g id="gnuplot_plot_8"  fill="none"><title>gnuplot_plot_8</title>
<g fill="none" color="black" stroke="currentColor" stroke-width="0.50" stroke-linecap="butt" stroke-linejoin="miter">
	<path stroke='black' stroke-dasharray='1.2,2.0'  d='M80.92,129.79 L83.30,129.79 L85.67,129.79 L88.05,129.79 L90.42,129.79 L92.80,129.79 L95.17,129.79 L97.55,129.79
		L99.92,129.79 L102.30,129.79 L104.67,129.79 L107.05,129.79 L109.43,129.79 L111.80,129.79 L114.18,129.79 L116.55,129.79
		L118.93,129.79 L121.30,129.79 L123.68,129.79 L126.05,129.79 L128.43,129.79 L130.80,129.79 L133.18,129.79 L135.56,129.79
		L137.93,129.79 L140.31,129.79 L142.68,129.79 L145.06,129.79 L147.43,129.79 L149.81,129.79 L152.18,129.79 L154.56,129.79
		L156.93,129.79 L159.31,129.79 L161.69,129.79 L164.06,129.79 L166.44,129.79 L168.81,129.79 L171.19,129.79 L173.56,129.79
		L175.94,129.79 L178.31,129.79 L180.69,129.79 L183.06,129.79 L185.44,129.79 L187.82,129.79 L190.19,129.79 L192.57,129.79
		L194.94,129.79 L197.32,129.79 L199.69,129.79 L202.07,129.79 L204.44,129.79 L206.82,129.79 L209.19,129.79 L211.57,129.79
		L213.95,129.79 L216.32,129.79 L218.70,129.79 L221.07,129.79 L223.45,129.79 L225.82,129.79 L228.20,129.79 L230.57,129.79
		L232.95,129.79 L235.32,129.79 L237.70,129.79 L240.08,129.79 L242.45,129.79 L244.83,129.79 L247.20,129.79 L249.58,129.79
		L251.95,129.79 L254.33,129.79 L256.70,129.79 L259.08,129.79 L261.45,129.79 L263.83,129.79 L266.21,129.79 L268.58,129.79
		L270.96,129.79 L273.33,129.79 L275.71,129.79 L278.08,129.79 L280.46,129.79 L282.83,129.79 L285.21,129.79 L287.58,129.79
		L289.96,129.79 L292.34,129.79 L294.71,129.79 L297.09,129.79 L299.46,129.79 L301.84,129.79 L304.21,129.79 L306.59,129.79
		L308.96,129.79 L311.34,129.79 L313.71,129.79 L316.09,129.79  '/></g>
	</g>
	<g id="gnuplot_plot_9"  fill="none"><title>gnuplot_plot_9</title>
<g fill="none" color="black" stroke="currentColor" stroke-width="0.50" stroke-linecap="butt" stroke-linejoin="miter">
	<path stroke='black' stroke-dasharray='1.2,2.0'  d='M80.92,110.84 L83.30,110.84 L85.67,110.84 L88.05,110.84 L90.42,110.84 L92.80,110.84 L95.17,110.84 L97.55,110.84
		L99.92,110.84 L102.30,110.84 L104.67,110.84 L107.05,110.84 L109.43,110.84 L111.80,110.84 L114.18,110.84 L116.55,110.84
		L118.93,110.84 L121.30,110.84 L123.68,110.84 L126.05,110.84 L128.43,110.84 L130.80,110.84 L133.18,110.84 L135.56,110.84
		L137.93,110.84 L140.31,110.84 L142.68,110.84 L145.06,110.84 L147.43,110.84 L149.81,110.84 L152.18,110.84 L154.56,110.84
		L156.93,110.84 L159.31,110.84 L161.69,110.84 L164.06,110.84 L166.44,110.84 L168.81,110.84 L171.19,110.84 L173.56,110.84
		L175.94,110.84 L178.31,110.84 L180.69,110.84 L183.06,110.84 L185.44,110.84 L187.82,110.84 L190.19,110.84 L192.57,110.84
		L194.94,110.84 L197.32,110.84 L199.69,110.84 L202.07,110.84 L204.44,110.84 L206.82,110.84 L209.19,110.84 L211.57,110.84
		L213.95,110.84 L216.32,110.84 L218.70,110.84 L221.07,110.84 L223.45,110.84 L225.82,110.84 L228.20,110.84 L230.57,110.84
		L232.95,110.84 L235.32,110.84 L237.70,110.84 L240.08,110.84 L242.45,110.84 L244.83,110.84 L247.20,110.84 L249.58,110.84
		L251.95,110.84 L254.33,110.84 L256.70,110.84 L259.08,110.84 L261.45,110.84 L263.83,110.84 L266.21,110.84 L268.58,110.84
		L270.96,110.84 L273.33,110.84 L275.71,110.84 L278.08,110.84 L280.46,110.84 L282.83,110.84 L285.21,110.84 L287.58,110.84
		L289.96,110.84 L292.34,110.84 L294.71,110.84 L297.09,110.84 L299.46,110.84 L301.84,110.84 L304.21,110.84 L306.59,110.84
		L308.96,110.84 L311.34,110.84 L313.71,110.84 L316.09,110.84  '/></g>
	</g>
	<g id="gnuplot_plot_10"  fill="none"><title>gnuplot_plot_10</title>
<g fill="none" color="black" stroke="currentColor" stroke-width="0.50" stroke-linecap="butt" stroke-linejoin="miter">
	<path stroke='black' stroke-dasharray='1.2,2.0'  d='M80.92,91.90 L83.30,91.90 L85.67,91.90 L88.05,91.90 L90.42,91.90 L92.80,91.90 L95.17,91.90 L97.55,91.90
		L99.92,91.90 L102.30,91.90 L104.67,91.90 L107.05,91.90 L109.43,91.90 L111.80,91.90 L114.18,91.90 L116.55,91.90
		L118.93,91.90 L121.30,91.90 L123.68,91.90 L126.05,91.90 L128.43,91.90 L130.80,91.90 L133.18,91.90 L135.56,91.90
		L137.93,91.90 L140.31,91.90 L142.68,91.90 L145.06,91.90 L147.43,91.90 L149.81,91.90 L152.18,91.90 L154.56,91.90
		L156.93,91.90 L159.31,91.90 L161.69,91.90 L164.06,91.90 L166.44,91.90 L168.81,91.90 L171.19,91.90 L173.56,91.90
		L175.94,91.90 L178.31,91.90 L180.69,91.90 L183.06,91.90 L185.44,91.90 L187.82,91.90 L190.19,91.90 L192.57,91.90
		L194.94,91.90 L197.32,91.90 L199.69,91.90 L202.07,91.90 L204.44,91.90 L206.82,91.90 L209.19,91.90 L211.57,91.90
		L213.95,91.90 L216.32,91.90 L218.70,91.90 L221.07,91.90 L223.45,91.90 L225.82,91.90 L228.20,91.90 L230.57,91.90
		L232.95,91.90 L235.32,91.90 L237.70,91.90 L240.08,91.90 L242.45,91.90 L244.83,91.90 L247.20,91.90 L249.58,91.90
		L251.95,91.90 L254.33,91.90 L256.70,91.90 L259.08,91.90 L261.45,91.90 L263.83,91.90 L266.21,91.90 L268.58,91.90
		L270.96,91.90 L273.33,91.90 L275.71,91.90 L278.08,91.90 L280.46,91.90 L282.83,91.90 L285.21,91.90 L287.58,91.90
		L289.96,91.90 L292.34,91.90 L294.71,91.90 L297.09,91.90 L299.46,91.90 L301.84,91.90 L304.21,91.90 L306.59,91.90
		L308.96,91.90 L311.34,91.90 L313.71,91.90 L316.09,91.90  '/></g>
	</g>
	<g id="gnuplot_plot_11"  fill="none"><title>gnuplot_plot_11</title>
<g fill="none" color="black" stroke="currentColor" stroke-width="0.50" stroke-linecap="butt" stroke-linejoin="miter">
	<path stroke='black' stroke-dasharray='1.2,2.0'  d='M80.92,72.95 L83.30,72.95 L85.67,72.95 L88.05,72.95 L90.42,72.95 L92.80,72.95 L95.17,72.95 L97.55,72.95
		L99.92,72.95 L102.30,72.95 L104.67,72.95 L107.05,72.95 L109.43,72.95 L111.80,72.95 L114.18,72.95 L116.55,72.95
		L118.93,72.95 L121.30,72.95 L123.68,72.95 L126.05,72.95 L128.43,72.95 L130.80,72.95 L133.18,72.95 L135.56,72.95
		L137.93,72.95 L140.31,72.95 L142.68,72.95 L145.06,72.95 L147.43,72.95 L149.81,72.95 L152.18,72.95 L154.56,72.95
		L156.93,72.95 L159.31,72.95 L161.69,72.95 L164.06,72.95 L166.44,72.95 L168.81,72.95 L171.19,72.95 L173.56,72.95
		L175.94,72.95 L178.31,72.95 L180.69,72.95 L183.06,72.95 L185.44,72.95 L187.82,72.95 L190.19,72.95 L192.57,72.95
		L194.94,72.95 L197.32,72.95 L199.69,72.95 L202.07,72.95 L204.44,72.95 L206.82,72.95 L209.19,72.95 L211.57,72.95
		L213.95,72.95 L216.32,72.95 L218.70,72.95 L221.07,72.95 L223.45,72.95 L225.82,72.95 L228.20,72.95 L230.57,72.95
		L232.95,72.95 L235.32,72.95 L237.70,72.95 L240.08,72.95 L242.45,72.95 L244.83,72.95 L247.20,72.95 L249.58,72.95
		L251.95,72.95 L254.33,72.95 L256.70,72.95 L259.08,72.95 L261.45,72.95 L263.83,72.95 L266.21,72.95 L268.58,72.95
		L270.96,72.95 L273.33,72.95 L275.71,72.95 L278.08,72.95 L280.46,72.95 L282.83,72.95 L285.21,72.95 L287.58,72.95
		L289.96,72.95 L292.34,72.95 L294.71,72.95 L297.09,72.95 L299.46,72.95 L301.84,72.95 L304.21,72.95 L306.59,72.95
		L308.96,72.95 L311.34,72.95 L313.71,72.95 L316.09,72.95  '/></g>
	</g>
	<g id="gnuplot_plot_12"  fill="none"><title>gnuplot_plot_12</title>
<g fill="none" color="black" stroke="currentColor" stroke-width="0.50" stroke-linecap="butt" stroke-linejoin="miter">
	<path stroke='black' stroke-dasharray='1.2,2.0'  d='M80.92,54.01 L83.30,54.01 L85.67,54.01 L88.05,54.01 L90.42,54.01 L92.80,54.01 L95.17,54.01 L97.55,54.01
		L99.92,54.01 L102.30,54.01 L104.67,54.01 L107.05,54.01 L109.43,54.01 L111.80,54.01 L114.18,54.01 L116.55,54.01
		L118.93,54.01 L121.30,54.01 L123.68,54.01 L126.05,54.01 L128.43,54.01 L130.80,54.01 L133.18,54.01 L135.56,54.01
		L137.93,54.01 L140.31,54.01 L142.68,54.01 L145.06,54.01 L147.43,54.01 L149.81,54.01 L152.18,54.01 L154.56,54.01
		L156.93,54.01 L159.31,54.01 L161.69,54.01 L164.06,54.01 L166.44,54.01 L168.81,54.01 L171.19,54.01 L173.56,54.01
		L175.94,54.01 L178.31,54.01 L180.69,54.01 L183.06,54.01 L185.44,54.01 L187.82,54.01 L190.19,54.01 L192.57,54.01
		L194.94,54.01 L197.32,54.01 L199.69,54.01 L202.07,54.01 L204.44,54.01 L206.82,54.01 L209.19,54.01 L211.57,54.01
		L213.95,54.01 L216.32,54.01 L218.70,54.01 L221.07,54.01 L223.45,54.01 L225.82,54.01 L228.20,54.01 L230.57,54.01
		L232.95,54.01 L235.32,54.01 L237.70,54.01 L240.08,54.01 L242.45,54.01 L244.83,54.01 L247.20,54.01 L249.58,54.01
		L251.95,54.01 L254.33,54.01 L256.70,54.01 L259.08,54.01 L261.45,54.01 L263.83,54.01 L266.21,54.01 L268.58,54.01
		L270.96,54.01 L273.33,54.01 L275.71,54.01 L278.08,54.01 L280.46,54.01 L282.83,54.01 L285.21,54.01 L287.58,54.01
		L289.96,54.01 L292.34,54.01 L294.71,54.01 L297.09,54.01 L299.46,54.01 L301.84,54.01 L304.21,54.01 L306.59,54.01
		L308.96,54.01 L311.34,54.01 L313.71,54.01 L316.09,54.01  '/></g>
	</g>
	<g id="gnuplot_plot_13" ><title>SMT-CCBS</title>
<g fill="none" color="white" stroke="black" stroke-width="1.00" stroke-linecap="butt" stroke-linejoin="miter">
</g>
<g fill="none" color="black" stroke="currentColor" stroke-width="1.00" stroke-linecap="butt" stroke-linejoin="miter">
	<g transform="translate(106.70,21.90)" stroke="none" fill="black" font-family="Arial" font-size="12.00"  text-anchor="start">
		<text><tspan font-family="Arial" >SMT-CCBS</tspan></text>
	</g>
</g>
<g fill="none" color="black" stroke="currentColor" stroke-width="1.00" stroke-linecap="butt" stroke-linejoin="miter">
	<g stroke='none' shape-rendering='crispEdges'>
		<polygon fill = 'rgb( 76, 175,  80)' points = '89.31,22.50 98.31,22.50 98.31,13.50 89.31,13.50 '/>
	</g>
	<path stroke='rgb(  0,   0,   0)'  d='M89.31,22.50 L98.31,22.50 L98.31,13.50 L89.31,13.50 L89.31,22.50 Z  '/></g>
<g fill="none" color="black" stroke="currentColor" stroke-width="1.00" stroke-linecap="butt" stroke-linejoin="miter">
	<g stroke='none' shape-rendering='crispEdges'>
		<polygon fill = 'rgb( 76, 175,  80)' points = '88.51,262.40 96.10,262.40 96.10,92.27 88.51,92.27 '/>
	</g>
	<path stroke='rgb(  0,   0,   0)'  d='M88.51,262.40 L88.51,92.28 L96.09,92.28 L96.09,262.40 L88.51,262.40 Z  '/></g>
<g fill="none" color="black" stroke="currentColor" stroke-width="1.00" stroke-linecap="butt" stroke-linejoin="miter">
	<g stroke='none' shape-rendering='crispEdges'>
		<polygon fill = 'rgb( 76, 175,  80)' points = '126.44,262.40 134.03,262.40 134.03,83.93 126.44,83.93 '/>
	</g>
	<path stroke='rgb(  0,   0,   0)'  d='M126.44,262.40 L126.44,83.94 L134.02,83.94 L134.02,262.40 L126.44,262.40 Z  '/></g>
<g fill="none" color="black" stroke="currentColor" stroke-width="1.00" stroke-linecap="butt" stroke-linejoin="miter">
	<g stroke='none' shape-rendering='crispEdges'>
		<polygon fill = 'rgb( 76, 175,  80)' points = '164.37,262.40 171.96,262.40 171.96,77.49 164.37,77.49 '/>
	</g>
	<path stroke='rgb(  0,   0,   0)'  d='M164.37,262.40 L164.37,77.50 L171.95,77.50 L171.95,262.40 L164.37,262.40 Z  '/></g>
<g fill="none" color="black" stroke="currentColor" stroke-width="1.00" stroke-linecap="butt" stroke-linejoin="miter">
	<g stroke='none' shape-rendering='crispEdges'>
		<polygon fill = 'rgb( 76, 175,  80)' points = '202.30,262.40 209.89,262.40 209.89,72.00 202.30,72.00 '/>
	</g>
	<path stroke='rgb(  0,   0,   0)'  d='M202.30,262.40 L202.30,72.01 L209.88,72.01 L209.88,262.40 L202.30,262.40 Z  '/></g>
<g fill="none" color="black" stroke="currentColor" stroke-width="1.00" stroke-linecap="butt" stroke-linejoin="miter">
	<g stroke='none' shape-rendering='crispEdges'>
		<polygon fill = 'rgb( 76, 175,  80)' points = '240.23,262.40 247.82,262.40 247.82,66.88 240.23,66.88 '/>
	</g>
	<path stroke='rgb(  0,   0,   0)'  d='M240.23,262.40 L240.23,66.89 L247.81,66.89 L247.81,262.40 L240.23,262.40 Z  '/></g>
<g fill="none" color="black" stroke="currentColor" stroke-width="1.00" stroke-linecap="butt" stroke-linejoin="miter">
	<g stroke='none' shape-rendering='crispEdges'>
		<polygon fill = 'rgb( 76, 175,  80)' points = '278.16,262.40 285.76,262.40 285.76,63.28 278.16,63.28 '/>
	</g>
	<path stroke='rgb(  0,   0,   0)'  d='M278.16,262.40 L278.16,63.29 L285.75,63.29 L285.75,262.40 L278.16,262.40 Z  '/></g>
<g fill="none" color="black" stroke="currentColor" stroke-width="1.00" stroke-linecap="butt" stroke-linejoin="miter">
</g>
	</g>
	<g id="gnuplot_plot_14" ><title>CCBS</title>
<g fill="none" color="black" stroke="currentColor" stroke-width="1.00" stroke-linecap="butt" stroke-linejoin="miter">
	<g transform="translate(106.70,39.90)" stroke="none" fill="black" font-family="Arial" font-size="12.00"  text-anchor="start">
		<text><tspan font-family="Arial" >CCBS</tspan></text>
	</g>
</g>
<g fill="none" color="black" stroke="currentColor" stroke-width="1.00" stroke-linecap="butt" stroke-linejoin="miter">
	<g stroke='none' shape-rendering='crispEdges'>
		<polygon fill = 'rgb(255, 152,   0)' points = '89.31,40.50 98.31,40.50 98.31,31.50 89.31,31.50 '/>
	</g>
	<path stroke='rgb(  0,   0,   0)'  d='M89.31,40.50 L98.31,40.50 L98.31,31.50 L89.31,31.50 L89.31,40.50 Z  '/></g>
<g fill="none" color="black" stroke="currentColor" stroke-width="1.00" stroke-linecap="butt" stroke-linejoin="miter">
	<g stroke='none' shape-rendering='crispEdges'>
		<polygon fill = 'rgb(255, 152,   0)' points = '96.09,262.40 103.69,262.40 103.69,205.37 96.09,205.37 '/>
	</g>
	<path stroke='rgb(  0,   0,   0)'  d='M96.09,262.40 L96.09,205.38 L103.68,205.38 L103.68,262.40 L96.09,262.40 Z  '/></g>
<g fill="none" color="black" stroke="currentColor" stroke-width="1.00" stroke-linecap="butt" stroke-linejoin="miter">
	<g stroke='none' shape-rendering='crispEdges'>
		<polygon fill = 'rgb(255, 152,   0)' points = '134.02,262.40 141.62,262.40 141.62,203.85 134.02,203.85 '/>
	</g>
	<path stroke='rgb(  0,   0,   0)'  d='M134.02,262.40 L134.02,203.86 L141.61,203.86 L141.61,262.40 L134.02,262.40 Z  '/></g>
<g fill="none" color="black" stroke="currentColor" stroke-width="1.00" stroke-linecap="butt" stroke-linejoin="miter">
	<g stroke='none' shape-rendering='crispEdges'>
		<polygon fill = 'rgb(255, 152,   0)' points = '171.95,262.40 179.55,262.40 179.55,201.96 171.95,201.96 '/>
	</g>
	<path stroke='rgb(  0,   0,   0)'  d='M171.95,262.40 L171.95,201.97 L179.54,201.97 L179.54,262.40 L171.95,262.40 Z  '/></g>
<g fill="none" color="black" stroke="currentColor" stroke-width="1.00" stroke-linecap="butt" stroke-linejoin="miter">
	<g stroke='none' shape-rendering='crispEdges'>
		<polygon fill = 'rgb(255, 152,   0)' points = '209.88,262.40 217.48,262.40 217.48,200.82 209.88,200.82 '/>
	</g>
	<path stroke='rgb(  0,   0,   0)'  d='M209.88,262.40 L209.88,200.83 L217.47,200.83 L217.47,262.40 L209.88,262.40 Z  '/></g>
<g fill="none" color="black" stroke="currentColor" stroke-width="1.00" stroke-linecap="butt" stroke-linejoin="miter">
	<g stroke='none' shape-rendering='crispEdges'>
		<polygon fill = 'rgb(255, 152,   0)' points = '247.81,262.40 255.41,262.40 255.41,199.87 247.81,199.87 '/>
	</g>
	<path stroke='rgb(  0,   0,   0)'  d='M247.81,262.40 L247.81,199.88 L255.40,199.88 L255.40,262.40 L247.81,262.40 Z  '/></g>
<g fill="none" color="black" stroke="currentColor" stroke-width="1.00" stroke-linecap="butt" stroke-linejoin="miter">
	<g stroke='none' shape-rendering='crispEdges'>
		<polygon fill = 'rgb(255, 152,   0)' points = '285.75,262.40 293.34,262.40 293.34,197.79 285.75,197.79 '/>
	</g>
	<path stroke='rgb(  0,   0,   0)'  d='M285.75,262.40 L285.75,197.80 L293.33,197.80 L293.33,262.40 L285.75,262.40 Z  '/></g>
<g fill="none" color="black" stroke="currentColor" stroke-width="1.00" stroke-linecap="butt" stroke-linejoin="miter">
</g>
	</g>
	<g id="gnuplot_plot_15"  fill="none"><title>gnuplot_plot_15</title>
<g fill="none" color="black" stroke="currentColor" stroke-width="1.00" stroke-linecap="butt" stroke-linejoin="miter">
	<g stroke='none' shape-rendering='crispEdges'>
		<polygon fill = 'rgb(101, 214, 229)' points = '103.68,262.40 111.27,262.40 111.27,237.57 103.68,237.57 '/>
	</g>
	<path stroke='rgb(  0,   0,   0)'  d='M103.68,262.40 L103.68,237.58 L111.26,237.58 L111.26,262.40 L103.68,262.40 Z  '/></g>
<g fill="none" color="black" stroke="currentColor" stroke-width="1.00" stroke-linecap="butt" stroke-linejoin="miter">
	<g stroke='none' shape-rendering='crispEdges'>
		<polygon fill = 'rgb(101, 214, 229)' points = '141.61,262.40 149.21,262.40 149.21,212.38 141.61,212.38 '/>
	</g>
	<path stroke='rgb(  0,   0,   0)'  d='M141.61,262.40 L141.61,212.39 L149.20,212.39 L149.20,262.40 L141.61,262.40 Z  '/></g>
<g fill="none" color="black" stroke="currentColor" stroke-width="1.00" stroke-linecap="butt" stroke-linejoin="miter">
	<g stroke='none' shape-rendering='crispEdges'>
		<polygon fill = 'rgb(101, 214, 229)' points = '179.54,262.40 187.14,262.40 187.14,193.81 179.54,193.81 '/>
	</g>
	<path stroke='rgb(  0,   0,   0)'  d='M179.54,262.40 L179.54,193.82 L187.13,193.82 L187.13,262.40 L179.54,262.40 Z  '/></g>
<g fill="none" color="black" stroke="currentColor" stroke-width="1.00" stroke-linecap="butt" stroke-linejoin="miter">
	<g stroke='none' shape-rendering='crispEdges'>
		<polygon fill = 'rgb(101, 214, 229)' points = '217.47,262.40 225.07,262.40 225.07,179.79 217.47,179.79 '/>
	</g>
	<path stroke='rgb(  0,   0,   0)'  d='M217.47,262.40 L217.47,179.80 L225.06,179.80 L225.06,262.40 L217.47,262.40 Z  '/></g>
<g fill="none" color="black" stroke="currentColor" stroke-width="1.00" stroke-linecap="butt" stroke-linejoin="miter">
	<g stroke='none' shape-rendering='crispEdges'>
		<polygon fill = 'rgb(101, 214, 229)' points = '255.40,262.40 263.00,262.40 263.00,172.02 255.40,172.02 '/>
	</g>
	<path stroke='rgb(  0,   0,   0)'  d='M255.40,262.40 L255.40,172.03 L262.99,172.03 L262.99,262.40 L255.40,262.40 Z  '/></g>
<g fill="none" color="black" stroke="currentColor" stroke-width="1.00" stroke-linecap="butt" stroke-linejoin="miter">
	<g stroke='none' shape-rendering='crispEdges'>
		<polygon fill = 'rgb(101, 214, 229)' points = '293.33,262.40 300.93,262.40 300.93,164.45 293.33,164.45 '/>
	</g>
	<path stroke='rgb(  0,   0,   0)'  d='M293.33,262.40 L293.33,164.46 L300.92,164.46 L300.92,262.40 L293.33,262.40 Z  '/></g>
<g fill="none" color="black" stroke="currentColor" stroke-width="1.00" stroke-linecap="butt" stroke-linejoin="miter">
</g>
	</g>
	<g id="gnuplot_plot_16"  fill="none"><title>gnuplot_plot_16</title>
<g fill="none" color="black" stroke="currentColor" stroke-width="1.00" stroke-linecap="butt" stroke-linejoin="miter">
	<g stroke='none' shape-rendering='crispEdges'>
		<polygon fill = 'rgb( 50, 201, 220)' points = '103.68,262.40 111.27,262.40 111.27,238.71 103.68,238.71 '/>
	</g>
	<path stroke='rgb(  0,   0,   0)'  d='M103.68,262.40 L103.68,238.72 L111.26,238.72 L111.26,262.40 L103.68,262.40 Z  '/></g>
<g fill="none" color="black" stroke="currentColor" stroke-width="1.00" stroke-linecap="butt" stroke-linejoin="miter">
	<g stroke='none' shape-rendering='crispEdges'>
		<polygon fill = 'rgb( 50, 201, 220)' points = '141.61,262.40 149.21,262.40 149.21,217.87 141.61,217.87 '/>
	</g>
	<path stroke='rgb(  0,   0,   0)'  d='M141.61,262.40 L141.61,217.88 L149.20,217.88 L149.20,262.40 L141.61,262.40 Z  '/></g>
<g fill="none" color="black" stroke="currentColor" stroke-width="1.00" stroke-linecap="butt" stroke-linejoin="miter">
	<g stroke='none' shape-rendering='crispEdges'>
		<polygon fill = 'rgb( 50, 201, 220)' points = '179.54,262.40 187.14,262.40 187.14,199.87 179.54,199.87 '/>
	</g>
	<path stroke='rgb(  0,   0,   0)'  d='M179.54,262.40 L179.54,199.88 L187.13,199.88 L187.13,262.40 L179.54,262.40 Z  '/></g>
<g fill="none" color="black" stroke="currentColor" stroke-width="1.00" stroke-linecap="butt" stroke-linejoin="miter">
	<g stroke='none' shape-rendering='crispEdges'>
		<polygon fill = 'rgb( 50, 201, 220)' points = '217.47,262.40 225.07,262.40 225.07,184.91 217.47,184.91 '/>
	</g>
	<path stroke='rgb(  0,   0,   0)'  d='M217.47,262.40 L217.47,184.92 L225.06,184.92 L225.06,262.40 L217.47,262.40 Z  '/></g>
<g fill="none" color="black" stroke="currentColor" stroke-width="1.00" stroke-linecap="butt" stroke-linejoin="miter">
	<g stroke='none' shape-rendering='crispEdges'>
		<polygon fill = 'rgb( 50, 201, 220)' points = '255.40,262.40 263.00,262.40 263.00,176.57 255.40,176.57 '/>
	</g>
	<path stroke='rgb(  0,   0,   0)'  d='M255.40,262.40 L255.40,176.58 L262.99,176.58 L262.99,262.40 L255.40,262.40 Z  '/></g>
<g fill="none" color="black" stroke="currentColor" stroke-width="1.00" stroke-linecap="butt" stroke-linejoin="miter">
	<g stroke='none' shape-rendering='crispEdges'>
		<polygon fill = 'rgb( 50, 201, 220)' points = '293.33,262.40 300.93,262.40 300.93,168.24 293.33,168.24 '/>
	</g>
	<path stroke='rgb(  0,   0,   0)'  d='M293.33,262.40 L293.33,168.25 L300.92,168.25 L300.92,262.40 L293.33,262.40 Z  '/></g>
<g fill="none" color="black" stroke="currentColor" stroke-width="1.00" stroke-linecap="butt" stroke-linejoin="miter">
</g>
	</g>
	<g id="gnuplot_plot_17" ><title>SMT-LRA(M, d)</title>
<g fill="none" color="black" stroke="currentColor" stroke-width="1.00" stroke-linecap="butt" stroke-linejoin="miter">
	<g transform="translate(241.55,21.90)" stroke="none" fill="black" font-family="Arial" font-size="12.00"  text-anchor="start">
		<text><tspan font-family="Arial" >SMT-LRA(M, </tspan><tspan font-family="Symbol" >d</tspan><tspan font-family="Arial" >)</tspan></text>
	</g>
</g>
<g fill="none" color="black" stroke="currentColor" stroke-width="1.00" stroke-linecap="butt" stroke-linejoin="miter">
	<g stroke='none' shape-rendering='crispEdges'>
		<polygon fill = 'rgb(  0, 188, 212)' points = '224.16,22.50 233.16,22.50 233.16,13.50 224.16,13.50 '/>
	</g>
	<path stroke='rgb(  0,   0,   0)'  d='M224.16,22.50 L233.16,22.50 L233.16,13.50 L224.16,13.50 L224.16,22.50 Z  '/></g>
<g fill="none" color="black" stroke="currentColor" stroke-width="1.00" stroke-linecap="butt" stroke-linejoin="miter">
	<g stroke='none' shape-rendering='crispEdges'>
		<polygon fill = 'rgb(  0, 188, 212)' points = '103.68,262.40 111.27,262.40 111.27,245.34 103.68,245.34 '/>
	</g>
	<path stroke='rgb(  0,   0,   0)'  d='M103.68,262.40 L103.68,245.35 L111.26,245.35 L111.26,262.40 L103.68,262.40 Z  '/></g>
<g fill="none" color="black" stroke="currentColor" stroke-width="1.00" stroke-linecap="butt" stroke-linejoin="miter">
	<g stroke='none' shape-rendering='crispEdges'>
		<polygon fill = 'rgb(  0, 188, 212)' points = '141.61,262.40 149.21,262.40 149.21,224.69 141.61,224.69 '/>
	</g>
	<path stroke='rgb(  0,   0,   0)'  d='M141.61,262.40 L141.61,224.70 L149.20,224.70 L149.20,262.40 L141.61,262.40 Z  '/></g>
<g fill="none" color="black" stroke="currentColor" stroke-width="1.00" stroke-linecap="butt" stroke-linejoin="miter">
	<g stroke='none' shape-rendering='crispEdges'>
		<polygon fill = 'rgb(  0, 188, 212)' points = '179.54,262.40 187.14,262.40 187.14,209.53 179.54,209.53 '/>
	</g>
	<path stroke='rgb(  0,   0,   0)'  d='M179.54,262.40 L179.54,209.54 L187.13,209.54 L187.13,262.40 L179.54,262.40 Z  '/></g>
<g fill="none" color="black" stroke="currentColor" stroke-width="1.00" stroke-linecap="butt" stroke-linejoin="miter">
	<g stroke='none' shape-rendering='crispEdges'>
		<polygon fill = 'rgb(  0, 188, 212)' points = '217.47,262.40 225.07,262.40 225.07,196.84 217.47,196.84 '/>
	</g>
	<path stroke='rgb(  0,   0,   0)'  d='M217.47,262.40 L217.47,196.85 L225.06,196.85 L225.06,262.40 L217.47,262.40 Z  '/></g>
<g fill="none" color="black" stroke="currentColor" stroke-width="1.00" stroke-linecap="butt" stroke-linejoin="miter">
	<g stroke='none' shape-rendering='crispEdges'>
		<polygon fill = 'rgb(  0, 188, 212)' points = '255.40,262.40 263.00,262.40 263.00,186.61 255.40,186.61 '/>
	</g>
	<path stroke='rgb(  0,   0,   0)'  d='M255.40,262.40 L255.40,186.62 L262.99,186.62 L262.99,262.40 L255.40,262.40 Z  '/></g>
<g fill="none" color="black" stroke="currentColor" stroke-width="1.00" stroke-linecap="butt" stroke-linejoin="miter">
	<g stroke='none' shape-rendering='crispEdges'>
		<polygon fill = 'rgb(  0, 188, 212)' points = '293.33,262.40 300.93,262.40 300.93,180.36 293.33,180.36 '/>
	</g>
	<path stroke='rgb(  0,   0,   0)'  d='M293.33,262.40 L293.33,180.37 L300.92,180.37 L300.92,262.40 L293.33,262.40 Z  '/></g>
<g fill="none" color="black" stroke="currentColor" stroke-width="1.00" stroke-linecap="butt" stroke-linejoin="miter">
</g>
	</g>
	<g id="gnuplot_plot_18"  fill="none"><title>gnuplot_plot_18</title>
<g fill="none" color="black" stroke="currentColor" stroke-width="1.00" stroke-linecap="butt" stroke-linejoin="miter">
	<g stroke='none' shape-rendering='crispEdges'>
		<polygon fill = 'rgb(241, 119, 161)' points = '111.26,262.40 118.86,262.40 118.86,236.25 111.26,236.25 '/>
	</g>
	<path stroke='rgb(  0,   0,   0)'  d='M111.26,262.40 L111.26,236.26 L118.85,236.26 L118.85,262.40 L111.26,262.40 Z  '/></g>
<g fill="none" color="black" stroke="currentColor" stroke-width="1.00" stroke-linecap="butt" stroke-linejoin="miter">
	<g stroke='none' shape-rendering='crispEdges'>
		<polygon fill = 'rgb(241, 119, 161)' points = '149.20,262.40 156.79,262.40 156.79,200.06 149.20,200.06 '/>
	</g>
	<path stroke='rgb(  0,   0,   0)'  d='M149.20,262.40 L149.20,200.07 L156.78,200.07 L156.78,262.40 L149.20,262.40 Z  '/></g>
<g fill="none" color="black" stroke="currentColor" stroke-width="1.00" stroke-linecap="butt" stroke-linejoin="miter">
	<g stroke='none' shape-rendering='crispEdges'>
		<polygon fill = 'rgb(241, 119, 161)' points = '187.13,262.40 194.72,262.40 194.72,172.21 187.13,172.21 '/>
	</g>
	<path stroke='rgb(  0,   0,   0)'  d='M187.13,262.40 L187.13,172.22 L194.71,172.22 L194.71,262.40 L187.13,262.40 Z  '/></g>
<g fill="none" color="black" stroke="currentColor" stroke-width="1.00" stroke-linecap="butt" stroke-linejoin="miter">
	<g stroke='none' shape-rendering='crispEdges'>
		<polygon fill = 'rgb(241, 119, 161)' points = '225.06,262.40 232.65,262.40 232.65,151.00 225.06,151.00 '/>
	</g>
	<path stroke='rgb(  0,   0,   0)'  d='M225.06,262.40 L225.06,151.01 L232.64,151.01 L232.64,262.40 L225.06,262.40 Z  '/></g>
<g fill="none" color="black" stroke="currentColor" stroke-width="1.00" stroke-linecap="butt" stroke-linejoin="miter">
	<g stroke='none' shape-rendering='crispEdges'>
		<polygon fill = 'rgb(241, 119, 161)' points = '262.99,262.40 270.58,262.40 270.58,131.48 262.99,131.48 '/>
	</g>
	<path stroke='rgb(  0,   0,   0)'  d='M262.99,262.40 L262.99,131.49 L270.57,131.49 L270.57,262.40 L262.99,262.40 Z  '/></g>
<g fill="none" color="black" stroke="currentColor" stroke-width="1.00" stroke-linecap="butt" stroke-linejoin="miter">
	<g stroke='none' shape-rendering='crispEdges'>
		<polygon fill = 'rgb(241, 119, 161)' points = '300.92,262.40 308.51,262.40 308.51,112.16 300.92,112.16 '/>
	</g>
	<path stroke='rgb(  0,   0,   0)'  d='M300.92,262.40 L300.92,112.17 L308.50,112.17 L308.50,262.40 L300.92,262.40 Z  '/></g>
<g fill="none" color="black" stroke="currentColor" stroke-width="1.00" stroke-linecap="butt" stroke-linejoin="miter">
</g>
	</g>
	<g id="gnuplot_plot_19"  fill="none"><title>gnuplot_plot_19</title>
<g fill="none" color="black" stroke="currentColor" stroke-width="1.00" stroke-linecap="butt" stroke-linejoin="miter">
	<g stroke='none' shape-rendering='crispEdges'>
		<polygon fill = 'rgb(237,  75, 130)' points = '111.26,262.40 118.86,262.40 118.86,238.52 111.26,238.52 '/>
	</g>
	<path stroke='rgb(  0,   0,   0)'  d='M111.26,262.40 L111.26,238.53 L118.85,238.53 L118.85,262.40 L111.26,262.40 Z  '/></g>
<g fill="none" color="black" stroke="currentColor" stroke-width="1.00" stroke-linecap="butt" stroke-linejoin="miter">
	<g stroke='none' shape-rendering='crispEdges'>
		<polygon fill = 'rgb(237,  75, 130)' points = '149.20,262.40 156.79,262.40 156.79,212.94 149.20,212.94 '/>
	</g>
	<path stroke='rgb(  0,   0,   0)'  d='M149.20,262.40 L149.20,212.95 L156.78,212.95 L156.78,262.40 L149.20,262.40 Z  '/></g>
<g fill="none" color="black" stroke="currentColor" stroke-width="1.00" stroke-linecap="butt" stroke-linejoin="miter">
	<g stroke='none' shape-rendering='crispEdges'>
		<polygon fill = 'rgb(237,  75, 130)' points = '187.13,262.40 194.72,262.40 194.72,194.00 187.13,194.00 '/>
	</g>
	<path stroke='rgb(  0,   0,   0)'  d='M187.13,262.40 L187.13,194.01 L194.71,194.01 L194.71,262.40 L187.13,262.40 Z  '/></g>
<g fill="none" color="black" stroke="currentColor" stroke-width="1.00" stroke-linecap="butt" stroke-linejoin="miter">
	<g stroke='none' shape-rendering='crispEdges'>
		<polygon fill = 'rgb(237,  75, 130)' points = '225.06,262.40 232.65,262.40 232.65,176.00 225.06,176.00 '/>
	</g>
	<path stroke='rgb(  0,   0,   0)'  d='M225.06,262.40 L225.06,176.01 L232.64,176.01 L232.64,262.40 L225.06,262.40 Z  '/></g>
<g fill="none" color="black" stroke="currentColor" stroke-width="1.00" stroke-linecap="butt" stroke-linejoin="miter">
	<g stroke='none' shape-rendering='crispEdges'>
		<polygon fill = 'rgb(237,  75, 130)' points = '262.99,262.40 270.58,262.40 270.58,161.23 262.99,161.23 '/>
	</g>
	<path stroke='rgb(  0,   0,   0)'  d='M262.99,262.40 L262.99,161.24 L270.57,161.24 L270.57,262.40 L262.99,262.40 Z  '/></g>
<g fill="none" color="black" stroke="currentColor" stroke-width="1.00" stroke-linecap="butt" stroke-linejoin="miter">
	<g stroke='none' shape-rendering='crispEdges'>
		<polygon fill = 'rgb(237,  75, 130)' points = '300.92,262.40 308.51,262.40 308.51,151.94 300.92,151.94 '/>
	</g>
	<path stroke='rgb(  0,   0,   0)'  d='M300.92,262.40 L300.92,151.95 L308.50,151.95 L308.50,262.40 L300.92,262.40 Z  '/></g>
<g fill="none" color="black" stroke="currentColor" stroke-width="1.00" stroke-linecap="butt" stroke-linejoin="miter">
</g>
	</g>
	<g id="gnuplot_plot_20" ><title>SMT-LRA(S, d)</title>
<g fill="none" color="black" stroke="currentColor" stroke-width="1.00" stroke-linecap="butt" stroke-linejoin="miter">
	<g transform="translate(241.55,39.90)" stroke="none" fill="black" font-family="Arial" font-size="12.00"  text-anchor="start">
		<text><tspan font-family="Arial" >SMT-LRA(S, </tspan><tspan font-family="Symbol" >d</tspan><tspan font-family="Arial" >)</tspan></text>
	</g>
</g>
<g fill="none" color="black" stroke="currentColor" stroke-width="1.00" stroke-linecap="butt" stroke-linejoin="miter">
	<g stroke='none' shape-rendering='crispEdges'>
		<polygon fill = 'rgb(233,  30,  99)' points = '224.16,40.50 233.16,40.50 233.16,31.50 224.16,31.50 '/>
	</g>
	<path stroke='rgb(  0,   0,   0)'  d='M224.16,40.50 L233.16,40.50 L233.16,31.50 L224.16,31.50 L224.16,40.50 Z  '/></g>
<g fill="none" color="black" stroke="currentColor" stroke-width="1.00" stroke-linecap="butt" stroke-linejoin="miter">
	<g stroke='none' shape-rendering='crispEdges'>
		<polygon fill = 'rgb(233,  30,  99)' points = '111.26,262.40 118.86,262.40 118.86,245.53 111.26,245.53 '/>
	</g>
	<path stroke='rgb(  0,   0,   0)'  d='M111.26,262.40 L111.26,245.54 L118.85,245.54 L118.85,262.40 L111.26,262.40 Z  '/></g>
<g fill="none" color="black" stroke="currentColor" stroke-width="1.00" stroke-linecap="butt" stroke-linejoin="miter">
	<g stroke='none' shape-rendering='crispEdges'>
		<polygon fill = 'rgb(233,  30,  99)' points = '149.20,262.40 156.79,262.40 156.79,229.62 149.20,229.62 '/>
	</g>
	<path stroke='rgb(  0,   0,   0)'  d='M149.20,262.40 L149.20,229.63 L156.78,229.63 L156.78,262.40 L149.20,262.40 Z  '/></g>
<g fill="none" color="black" stroke="currentColor" stroke-width="1.00" stroke-linecap="butt" stroke-linejoin="miter">
	<g stroke='none' shape-rendering='crispEdges'>
		<polygon fill = 'rgb(233,  30,  99)' points = '187.13,262.40 194.72,262.40 194.72,217.11 187.13,217.11 '/>
	</g>
	<path stroke='rgb(  0,   0,   0)'  d='M187.13,262.40 L187.13,217.12 L194.71,217.12 L194.71,262.40 L187.13,262.40 Z  '/></g>
<g fill="none" color="black" stroke="currentColor" stroke-width="1.00" stroke-linecap="butt" stroke-linejoin="miter">
	<g stroke='none' shape-rendering='crispEdges'>
		<polygon fill = 'rgb(233,  30,  99)' points = '225.06,262.40 232.65,262.40 232.65,205.18 225.06,205.18 '/>
	</g>
	<path stroke='rgb(  0,   0,   0)'  d='M225.06,262.40 L225.06,205.19 L232.64,205.19 L232.64,262.40 L225.06,262.40 Z  '/></g>
<g fill="none" color="black" stroke="currentColor" stroke-width="1.00" stroke-linecap="butt" stroke-linejoin="miter">
	<g stroke='none' shape-rendering='crispEdges'>
		<polygon fill = 'rgb(233,  30,  99)' points = '262.99,262.40 270.58,262.40 270.58,200.06 262.99,200.06 '/>
	</g>
	<path stroke='rgb(  0,   0,   0)'  d='M262.99,262.40 L262.99,200.07 L270.57,200.07 L270.57,262.40 L262.99,262.40 Z  '/></g>
<g fill="none" color="black" stroke="currentColor" stroke-width="1.00" stroke-linecap="butt" stroke-linejoin="miter">
	<g stroke='none' shape-rendering='crispEdges'>
		<polygon fill = 'rgb(233,  30,  99)' points = '300.92,262.40 308.51,262.40 308.51,194.57 300.92,194.57 '/>
	</g>
	<path stroke='rgb(  0,   0,   0)'  d='M300.92,262.40 L300.92,194.58 L308.50,194.58 L308.50,262.40 L300.92,262.40 Z  '/></g>
<g fill="none" color="black" stroke="currentColor" stroke-width="1.00" stroke-linecap="butt" stroke-linejoin="miter">
</g>
	</g>
<g fill="none" color="white" stroke="rgb(233,  30,  99)" stroke-width="2.00" stroke-linecap="butt" stroke-linejoin="miter">
</g>
<g fill="none" color="black" stroke="currentColor" stroke-width="2.00" stroke-linecap="butt" stroke-linejoin="miter">
</g>
<g fill="none" color="black" stroke="black" stroke-width="1.00" stroke-linecap="butt" stroke-linejoin="miter">
</g>
<g fill="none" color="black" stroke="currentColor" stroke-width="1.00" stroke-linecap="butt" stroke-linejoin="miter">
	<path stroke='black'  d='M80.92,54.01 L80.92,262.40 L316.09,262.40 L316.09,54.01 L80.92,54.01 Z  '/></g>
<g fill="none" color="black" stroke="currentColor" stroke-width="1.00" stroke-linecap="butt" stroke-linejoin="miter">
</g>
</g>
</svg>

